"","carts","drays","horse_carts","jinrikishas","lorries","tramcars","wagons"
"carts",TRUE,FALSE,FALSE,FALSE,FALSE,FALSE,FALSE
"drays",FALSE,TRUE,FALSE,FALSE,FALSE,FALSE,FALSE
"horse_carts",FALSE,FALSE,TRUE,FALSE,FALSE,FALSE,FALSE
"jinrikishas",FALSE,FALSE,FALSE,TRUE,FALSE,FALSE,FALSE
"lorries",FALSE,FALSE,FALSE,FALSE,TRUE,FALSE,FALSE
"tramcars",FALSE,FALSE,FALSE,FALSE,FALSE,TRUE,FALSE
"wagons",FALSE,FALSE,FALSE,FALSE,FALSE,FALSE,TRUE
