from,to,precision,recall,fmeasure,dnf
bread,aquatic_plants,1,0.4074074074074074,0.5789473684210525,(strmatch) + (fu)
bread,bread,0.9053030303030303,0.6988304093567251,0.7887788778877889,(strmatch) + (fu)
bread,bulbous_plants,0.9090909090909091,0.35714285714285715,0.5128205128205129,(strmatch) + (fu)
bread,candy,0.898876404494382,0.5405405405405406,0.6751054852320675,(strmatch) + (fu)
bread,crafts,0.9791666666666666,0.34057971014492755,0.5053763440860215,(strmatch) + (fu)
bread,food,0.4165483674711012,0.24333609761876554,0.3072090936284774,(strmatch) + (fu)
bread,grasses,1,0.5079365079365079,0.6736842105263158,(strmatch) + (fu)
bread,motor_vehicles,1,0.40229885057471265,0.5737704918032787,(strmatch) + (fu)
bread,plants,0.8969521044992743,0.2169943820224719,0.3494486853265479,(strmatch) + (fu)
bread,snack_food,0.9354838709677419,0.42028985507246375,0.58,(strmatch) + (fu)
bread,vehicles,0.9370629370629371,0.2571976967370441,0.40361445783132527,(strmatch) + (fu)
bread,wagons,1,0.47058823529411764,0.6399999999999999,(strmatch) + (fu)
