from,to,precision,recall,fmeasure,dnf
bulbous_plants,aquatic_plants,1,0.4074074074074074,0.5789473684210525,(strmatch)
bulbous_plants,bread,0.96,0.49122807017543857,0.6499032882011605,(strmatch)
bulbous_plants,bulbous_plants,0.9090909090909091,0.35714285714285715,0.5128205128205129,(strmatch)
bulbous_plants,candy,0.9523809523809523,0.5405405405405406,0.6896551724137931,(strmatch)
bulbous_plants,crafts,0.9791666666666666,0.34057971014492755,0.5053763440860215,(strmatch)
bulbous_plants,food,0.7418630751964085,0.23492477194645184,0.35684721972287203,(strmatch)
bulbous_plants,grasses,1,0.5079365079365079,0.6736842105263158,(strmatch)
bulbous_plants,motor_vehicles,1,0.40229885057471265,0.5737704918032787,(strmatch)
bulbous_plants,plants,0.8969521044992743,0.2169943820224719,0.3494486853265479,(strmatch)
bulbous_plants,snack_food,0.9354838709677419,0.42028985507246375,0.58,(strmatch)
bulbous_plants,vehicles,0.9370629370629371,0.2571976967370441,0.40361445783132527,(strmatch)
bulbous_plants,wagons,1,0.47058823529411764,0.6399999999999999,(strmatch)
