"","aircrafts","airliners","airplanes","airships","ambulances","armored_personnel_carriers","armored_vehicles","baby_buggies","balloons","barges","barrows","bicycles","blimps","boats","bombers","buggies","bulldozers","buss","cabs","campers","canoes","cargo_ships","carriages","cars","carts","chariots","convertibles","coupes","crafts","drays","dump_trucks","electrics","ferries","fire_engines","forklifts","four_wheel_drives","four_wheelers","gliders","go_karts","golfcarts","hackneys","half_tracks","handcarts","hearses","heavier_than_air_crafts","helicopters","horse_carts","horse_drawn_vehicles","houseboats","hovercrafts","jeeps","jets","jinrikishas","kayaks","lighter_than_air_crafts","limousines","locomotives","lorries","military_vehicles","minibikes","minivans","missiles","mopeds","motor_vehicles","motorboats","motorcycles","mountain_bikes","oil_tankers","passenger_cars","passenger_vans","pedicabs","pickups","recreational_vehicles","roadsters","rockets","seaplanes","sedans","self_propelled_vehicles","ships","skateboards","sleds","small_boats","snowmobiles","snowplows","spacecrafts","sport_utilities","steamboats","streetcars","submarines","submersibles","tanks","tracked_vehicles","tractors","trail_bikes","trailer_trucks","trailers","tramcars","tricycles","trucks","tugboats","vans","vehicles","vessels","wagons","warships","water_scooters","wheeled_vehicles","yachts"
"aircrafts",124651,860,1973,352,782,824,2762,23,601,386,139,740,140,2833,2688,166,245,35,446,79,200,1320,886,4911,330,127,227,698,2048,9,245,2489,1274,2951,99,813,1554,780,59,1,52,1652,14,33,823,3693,124,428,20,245,623,3459,1,77,204,165,720,299,8880,8,87,3820,65,3867,90,1161,185,404,1668,610,6,484,473,159,3487,277,322,1104,4724,75,158,1948,145,34,1091,238,89,116,1784,146,4837,3951,1032,153,473,869,22,340,3008,98,1716,14283,2206,528,957,82,2319,345
"airliners",860,12649,379,66,75,44,111,6,82,39,9,71,20,240,317,16,13,1,55,8,19,164,55,454,36,12,25,64,204,0,22,273,185,328,12,64,158,126,6,1,4,165,0,4,114,388,11,27,5,36,38,645,0,3,32,26,72,19,709,1,3,350,4,287,7,86,20,53,289,117,2,52,47,5,351,60,20,76,371,10,20,174,8,5,150,30,13,20,165,11,350,333,107,15,43,76,3,29,243,8,177,1042,140,39,62,11,204,42
"airplanes",1973,379,35042,148,212,114,423,26,285,98,38,289,64,833,628,85,91,8,159,42,79,333,175,1645,129,42,95,181,552,4,95,795,348,760,43,259,486,271,37,0,11,511,2,17,261,978,60,127,14,58,163,1113,0,34,82,72,201,52,1788,7,41,688,22,1008,41,390,96,99,648,256,6,181,179,49,785,111,138,163,1105,44,84,608,70,21,323,78,48,61,434,44,951,1058,330,75,215,310,5,72,934,28,621,3289,399,188,161,52,645,113
"airships",352,66,148,6807,23,19,84,4,153,22,9,50,85,156,104,14,7,1,25,8,24,70,46,245,29,16,10,24,144,0,14,154,46,154,8,48,88,77,6,0,0,91,0,1,76,165,13,23,3,27,22,177,0,12,46,14,45,11,299,0,2,146,4,197,11,87,11,28,100,43,0,24,29,6,167,42,17,51,259,8,20,116,16,2,66,21,16,9,110,22,148,197,61,8,27,56,1,21,104,6,105,540,103,27,45,7,119,44
"ambulances",782,75,212,23,27333,231,421,12,94,63,65,237,18,509,243,69,133,10,297,60,53,164,216,1681,116,24,99,121,231,8,130,467,267,755,39,355,547,69,25,0,53,422,3,99,101,658,59,173,3,42,215,334,2,33,15,124,141,137,1320,2,62,349,25,919,14,385,94,68,627,293,6,295,157,57,329,34,158,170,567,33,29,378,37,17,34,102,15,32,147,12,782,916,286,69,281,400,12,27,1175,12,747,2849,229,312,65,31,762,76
"armored_personnel_carriers",824,44,114,19,231,17452,1348,2,36,51,10,36,12,304,270,17,91,1,72,8,8,191,103,518,25,20,19,131,236,1,53,180,97,437,14,151,302,49,1,0,4,285,0,2,138,572,9,42,1,31,154,293,0,0,33,13,50,36,1217,0,8,662,1,326,14,83,11,67,130,43,0,77,24,3,579,25,28,409,479,4,8,246,8,3,45,27,3,7,195,19,1036,574,148,5,82,115,1,9,548,7,162,1348,256,58,151,5,493,14
"armored_vehicles",2762,111,423,84,421,1348,60001,15,170,160,39,180,37,1105,893,104,238,6,258,34,44,546,479,2278,155,113,99,421,815,5,179,809,322,1604,49,467,870,174,28,0,5,1009,3,13,358,1684,60,208,7,111,449,1045,0,21,77,89,179,96,4796,4,34,2004,11,1320,36,497,88,156,447,159,1,277,96,37,1728,52,147,972,2142,49,60,730,30,12,213,94,16,32,658,82,3820,2182,461,49,263,517,3,31,1801,31,752,6718,941,243,475,26,1372,77
"baby_buggies",23,6,26,4,12,2,15,1708,19,5,3,31,1,32,10,91,4,1,23,8,2,9,26,76,20,5,15,4,12,1,5,42,6,35,2,27,41,11,7,0,3,34,1,3,8,20,11,12,1,8,15,26,0,0,5,8,14,2,34,3,6,12,1,46,1,27,14,1,30,19,0,17,9,8,24,4,17,13,32,12,9,26,5,1,5,11,2,6,15,0,31,54,22,8,21,26,1,15,47,1,39,91,9,30,5,13,48,4
"balloons",601,82,285,153,94,36,170,19,16348,65,15,180,67,381,212,62,24,2,76,24,41,142,112,734,114,34,37,60,278,4,51,409,130,316,18,132,252,142,38,0,3,331,2,14,136,316,45,99,8,38,62,383,0,24,58,22,110,33,665,5,13,300,11,431,21,177,82,37,265,108,3,73,102,26,447,34,46,99,544,47,53,298,35,6,212,47,33,36,200,32,406,646,117,57,90,178,16,28,349,15,323,1540,186,122,66,47,334,64
"barges",386,39,98,22,63,51,160,5,65,13739,23,146,12,569,150,19,31,5,61,8,58,321,118,548,82,28,10,41,293,5,59,263,342,258,20,89,183,28,6,0,14,241,2,6,149,198,48,104,18,34,42,187,0,23,35,5,146,46,558,0,5,148,5,370,15,83,40,108,268,94,0,50,98,4,177,34,18,83,701,16,30,433,16,4,61,28,60,37,188,46,374,450,93,57,73,117,8,11,360,86,211,1182,399,105,139,16,228,89
"barrows",139,9,38,9,65,10,39,3,15,23,5483,52,4,124,41,9,4,7,48,9,19,49,105,293,37,11,8,17,93,3,10,173,83,101,2,46,108,22,6,0,23,145,2,5,32,64,25,53,1,8,10,61,0,12,10,5,88,30,230,0,3,45,2,206,3,53,18,20,138,64,2,22,35,5,43,10,17,17,187,9,10,92,10,2,14,17,11,12,63,6,116,237,55,18,18,58,5,9,101,1,148,555,101,82,33,3,142,27
"bicycles",740,71,289,50,237,36,180,31,180,146,52,36356,18,791,192,125,43,8,247,60,161,200,428,2632,299,63,94,103,340,12,93,1040,516,440,47,440,763,97,68,2,23,648,14,30,149,351,132,296,7,42,136,340,2,102,31,103,321,114,1118,15,49,168,165,1797,29,1057,451,48,1064,403,35,215,450,122,272,27,134,119,789,136,77,581,105,16,93,162,65,237,160,16,549,1590,266,441,209,364,18,213,1058,21,873,4374,311,325,44,112,1114,124
"blimps",140,20,64,85,18,12,37,1,67,12,4,18,3049,75,41,6,5,0,11,4,11,38,17,113,14,6,5,15,61,1,14,61,21,59,4,16,31,21,3,0,0,44,0,3,34,87,6,11,2,7,14,66,0,3,24,4,16,3,140,0,3,50,3,63,5,27,8,12,37,19,0,16,16,3,61,19,9,18,114,8,4,56,2,3,22,10,3,8,66,9,69,94,26,5,19,38,0,13,60,3,51,259,43,15,22,3,44,16
"boats",2833,240,833,156,509,304,1105,32,381,569,124,791,75,83107,879,181,147,14,337,168,461,1151,607,3766,439,142,149,364,1653,12,254,1581,1556,1440,82,611,1094,298,90,2,51,1252,7,44,613,1634,198,446,60,189,369,1261,1,269,142,111,555,208,3537,7,65,1181,46,2456,162,825,342,314,1423,526,15,384,824,108,1079,211,194,359,3778,121,169,5144,208,29,244,205,207,148,1270,155,2082,2649,554,330,452,823,27,101,2017,163,1427,8285,2251,528,674,123,1465,580
"bombers",2688,317,628,104,243,270,893,10,212,150,41,192,41,879,40271,46,118,13,105,20,57,414,221,1517,100,32,55,295,587,3,131,576,394,921,15,176,424,302,23,0,15,627,4,10,336,1170,41,166,7,55,235,1208,0,18,73,51,224,123,2985,3,22,1339,8,893,34,316,56,185,466,221,2,137,101,34,1209,129,82,314,1402,23,40,673,26,7,228,64,21,29,693,46,1677,1183,277,44,143,237,12,46,1046,21,661,3818,579,165,348,20,533,97
"buggies",166,16,85,14,69,17,104,91,62,19,9,125,6,181,46,9804,33,3,94,27,22,44,158,602,94,19,53,28,93,7,41,240,56,170,17,189,280,45,38,2,12,162,4,23,38,140,54,95,2,41,118,130,0,20,17,35,64,22,234,6,18,88,8,378,7,202,51,16,185,73,1,111,65,63,115,13,88,44,188,28,31,137,33,7,36,56,11,23,56,6,202,360,111,35,98,138,4,36,364,6,186,885,47,161,12,33,376,30
"bulldozers",245,13,91,7,133,91,238,4,24,31,4,43,5,147,118,33,8197,3,57,21,12,61,46,339,26,6,15,37,75,1,97,123,63,223,37,82,128,23,5,0,10,153,0,7,45,229,13,43,0,15,66,150,0,5,11,8,56,22,394,0,8,179,2,174,2,77,15,30,88,46,0,74,26,4,200,5,21,99,193,7,16,104,28,15,21,13,3,6,60,3,367,319,170,11,107,128,1,5,380,6,165,692,81,64,25,15,195,13
"buss",35,1,8,1,10,1,6,1,2,5,7,8,0,14,13,3,3,1177,9,2,1,9,6,65,5,0,3,5,12,0,5,42,20,25,2,14,20,3,1,0,0,27,0,0,5,15,1,4,0,0,7,17,0,2,1,3,6,4,51,0,3,13,1,58,0,9,8,3,41,20,0,12,8,4,16,1,6,1,34,2,1,10,1,1,3,9,0,10,7,0,25,48,5,6,8,14,1,1,41,1,38,144,11,9,4,1,25,3
"cabs",446,55,159,25,297,72,258,23,76,61,48,247,11,337,105,94,57,9,31770,81,29,156,510,2201,149,37,178,116,164,5,192,1159,241,659,57,630,914,41,24,2,62,493,4,42,73,242,64,193,5,46,198,286,1,13,16,144,620,190,827,3,110,190,15,1578,7,253,69,72,1325,522,21,594,118,93,237,23,298,152,525,30,32,277,30,29,50,174,28,128,96,9,684,1188,431,64,401,681,39,38,1495,7,894,3196,156,573,40,33,1266,52
"campers",79,8,42,8,60,8,34,8,24,8,9,60,4,168,20,27,21,2,81,5966,44,23,23,340,28,4,37,20,57,1,30,111,46,82,14,123,160,16,7,0,3,104,0,12,20,79,14,22,5,11,50,76,0,27,5,21,21,11,141,2,26,30,3,185,8,71,44,16,115,91,1,124,147,20,46,4,46,15,97,14,10,130,17,7,12,39,7,4,15,2,119,211,79,39,111,182,1,5,240,6,221,596,37,91,3,9,190,19
"canoes",200,19,79,24,53,8,44,2,41,58,19,161,11,461,57,22,12,1,29,44,9260,85,55,436,57,24,8,23,194,2,28,190,189,101,5,67,122,25,17,0,6,178,2,2,62,122,25,70,6,16,28,127,1,201,10,19,69,12,343,0,8,63,4,267,26,102,127,27,161,58,2,50,193,3,75,16,13,20,300,26,38,338,81,3,24,29,56,29,84,18,139,357,56,106,46,90,2,16,195,18,188,1052,139,68,37,14,157,67
"cargo_ships",1320,164,333,70,164,191,546,9,142,321,49,200,38,1151,414,44,61,9,156,23,85,33616,188,1089,118,37,69,159,777,5,101,647,683,704,43,217,384,112,11,0,16,517,3,9,331,711,56,131,9,91,122,602,1,37,79,38,227,80,1511,3,37,596,12,840,27,189,65,290,689,280,5,143,180,24,600,89,73,203,2631,23,59,822,31,11,286,93,66,62,561,67,981,949,220,57,153,252,8,31,803,85,474,2631,1246,189,374,27,484,190
"carriages",886,55,175,46,216,103,479,26,112,118,105,428,17,607,221,158,46,6,510,23,55,188,38253,2271,365,107,117,92,305,25,61,1349,390,927,32,389,909,93,20,0,126,662,11,65,100,243,252,681,6,52,107,284,3,24,38,113,1014,180,1339,2,35,511,31,1709,14,314,66,55,1337,458,14,145,154,99,413,32,167,399,921,30,59,465,39,15,45,83,54,130,199,17,997,1615,410,69,228,537,73,119,906,18,739,4407,315,905,141,36,1298,96
"cars",4911,454,1645,245,1681,518,2278,76,734,548,293,2632,113,3766,1517,602,339,65,2201,340,436,1089,2271,238437,1069,280,1807,1763,1828,44,692,7354,2232,3473,221,4583,6480,427,293,5,169,3905,28,222,644,2645,406,1117,51,245,1358,2824,4,191,150,937,2253,814,7949,23,626,1807,251,16597,113,3704,630,412,9965,2214,39,2076,1173,1329,2287,175,3281,876,5116,300,249,2546,263,94,531,1046,249,777,1062,95,5227,10955,1685,558,1437,2983,224,333,8622,127,5697,37582,1808,3128,417,225,9668,638
"carts",330,36,129,29,116,25,155,20,114,82,37,299,14,439,100,94,26,5,149,28,57,118,365,1069,19238,98,48,58,190,25,87,492,193,294,49,287,532,42,69,9,18,388,23,27,71,154,685,346,5,23,82,204,2,37,21,34,185,75,614,4,21,118,34,691,13,257,63,30,380,158,11,119,144,52,189,13,67,98,463,49,71,335,38,13,61,60,34,50,104,7,396,807,163,63,151,236,16,51,597,12,409,1891,179,346,39,41,731,60
"chariots",127,12,42,16,24,20,113,5,34,28,11,63,6,142,32,19,6,0,37,4,24,37,107,280,98,6313,18,30,124,9,8,120,56,132,9,111,189,16,11,0,8,117,2,5,48,61,70,141,3,10,22,94,0,5,14,16,46,17,252,0,19,85,5,180,6,68,16,9,105,38,6,26,27,8,102,6,30,43,195,12,16,110,8,3,52,29,10,12,62,12,189,227,35,12,27,56,1,14,116,4,127,641,97,108,37,18,233,20
"convertibles",227,25,95,10,99,19,99,15,37,10,8,94,5,149,55,53,15,3,178,37,8,69,117,1807,48,18,19948,518,103,1,45,550,54,275,11,873,981,26,13,1,8,294,1,37,48,87,16,49,4,15,194,207,0,5,19,216,64,40,326,5,99,70,16,1423,6,222,34,18,702,212,2,290,39,437,128,9,811,39,266,15,22,109,14,9,28,156,4,18,45,4,372,701,129,19,104,144,0,29,559,1,402,2009,38,524,16,17,1215,36
"coupes",698,64,181,24,121,131,421,4,60,41,17,103,15,364,295,28,37,5,116,20,23,159,92,1763,58,30,518,25043,237,2,59,462,146,320,10,736,874,45,11,0,4,444,1,24,116,450,24,103,4,21,146,420,0,9,18,128,63,46,1391,2,52,389,9,1156,4,183,33,58,626,199,2,188,48,231,372,16,625,103,673,15,14,289,6,0,75,99,6,14,199,9,749,886,85,13,48,112,3,11,607,6,521,2695,250,372,140,15,1083,50
"crafts",2048,204,552,144,231,236,815,12,278,293,93,340,61,1653,587,93,75,12,164,57,194,777,305,1828,190,124,103,237,52122,12,93,1017,681,1114,34,361,660,221,42,0,29,836,5,24,1406,1029,104,278,15,170,205,1036,0,86,324,58,258,80,2594,3,28,1038,17,1446,74,386,140,189,648,278,8,189,338,66,1384,118,133,308,2370,55,88,1229,69,12,994,124,70,79,737,123,1511,1753,319,124,175,378,9,61,947,82,863,5441,1336,275,466,59,854,250
"drays",9,0,4,0,8,1,5,1,4,5,3,12,1,12,3,7,1,0,5,1,2,5,25,44,25,9,1,2,12,880,3,25,6,18,1,11,25,1,2,0,1,23,3,5,4,4,22,29,1,0,1,8,0,0,0,4,15,12,24,0,1,6,0,35,0,8,1,2,18,9,1,4,3,2,6,0,5,7,14,0,2,10,0,0,2,4,1,4,2,1,8,40,7,2,5,9,4,4,24,1,24,83,6,23,5,1,30,1
"dump_trucks",245,22,95,14,130,53,179,5,51,59,10,93,14,254,131,41,97,5,192,30,28,101,61,692,87,8,45,59,93,3,12841,249,98,252,49,151,240,18,15,0,4,229,5,9,55,203,35,68,6,21,100,193,0,9,12,27,98,82,463,0,33,136,5,393,10,143,40,61,267,137,3,185,59,19,183,13,56,74,302,31,31,199,33,31,40,45,12,21,71,9,360,413,242,31,273,273,2,13,996,16,315,996,94,136,33,22,358,38
"electrics",2489,273,795,154,467,180,809,42,409,263,173,1040,61,1581,576,240,123,42,1159,111,190,647,1349,7354,492,120,550,462,1017,25,249,100801,961,1854,137,1672,2438,269,105,4,69,1769,15,70,406,966,174,555,22,112,365,1515,3,89,125,241,1714,226,3159,18,209,1061,100,6037,55,1047,296,227,3442,1028,24,724,546,403,1310,96,870,437,2538,121,124,1177,115,49,534,468,123,561,794,117,2317,4349,743,275,521,1284,181,199,2758,68,2116,12377,1078,1352,284,138,3370,263
"ferries",1274,185,348,46,267,97,322,6,130,342,83,516,21,1556,394,56,63,20,241,46,189,683,390,2232,193,56,54,146,681,6,98,961,41126,655,23,249,489,120,31,1,42,651,7,20,243,608,96,261,24,89,121,648,2,100,54,46,366,158,1656,1,30,495,32,1229,39,339,167,173,1442,435,14,151,347,40,539,92,69,130,2028,44,59,1085,62,13,169,95,133,175,386,42,889,1394,272,150,181,345,30,82,962,102,776,4716,1237,309,212,38,637,277
"fire_engines",2951,328,760,154,755,437,1604,35,316,258,101,440,59,1440,921,170,223,25,659,82,101,704,927,3473,294,132,275,320,1114,18,252,1854,655,78135,91,1059,1669,232,93,1,49,1345,8,49,502,1366,129,379,16,125,361,1633,0,44,144,143,738,236,3642,7,96,2028,36,2815,47,690,147,243,1366,590,5,477,267,170,2050,108,358,763,2405,74,98,1092,82,34,639,186,93,114,782,68,3106,2977,791,134,507,878,28,95,2320,76,1321,7480,993,690,428,76,2248,166
"forklifts",99,12,43,8,39,14,49,2,18,20,2,47,4,82,15,17,37,2,57,14,5,43,32,221,49,9,11,10,34,1,49,137,23,91,4625,72,97,11,11,1,2,61,2,1,21,56,14,15,2,10,24,60,0,4,5,13,48,24,141,0,6,50,7,178,4,73,14,16,102,51,0,69,21,11,38,4,37,29,104,16,9,65,12,8,9,16,3,10,32,5,117,140,115,13,96,108,1,6,300,5,92,370,49,50,12,17,137,7
"four_wheel_drives",813,64,259,48,355,151,467,27,132,89,46,440,16,611,176,189,82,14,630,123,67,217,389,4583,287,111,873,736,361,11,151,1672,249,1059,72,62882,5687,85,99,2,28,980,7,53,190,392,123,236,6,45,477,561,0,33,66,348,314,165,1256,13,257,325,69,3787,35,728,164,58,2021,657,12,760,226,481,459,16,1554,261,852,56,75,496,76,33,94,541,44,88,169,25,1407,2291,493,159,402,602,18,126,1868,23,1185,5687,227,1309,79,66,5687,98
"four_wheelers",1554,158,486,88,547,302,870,41,252,183,108,763,31,1094,424,280,128,20,914,160,122,384,909,6480,532,189,981,874,660,25,240,2438,489,1669,97,5687,94056,168,136,4,52,1533,14,80,306,753,241,482,11,74,595,983,2,59,101,420,725,268,2359,15,287,713,98,5071,48,1119,249,111,2734,935,18,921,374,570,912,51,1716,479,1540,95,111,876,109,39,223,608,83,155,338,36,2282,3589,770,234,612,983,59,216,2742,40,1819,8953,453,1746,170,105,8953,151
"gliders",780,126,271,77,69,49,174,11,142,28,22,97,21,298,302,45,23,3,41,16,25,112,93,427,42,16,26,45,221,1,18,269,120,232,11,85,168,12250,19,0,1,154,2,3,121,281,17,33,4,31,97,357,0,17,45,16,77,26,623,2,10,224,8,373,23,122,32,32,146,75,0,42,54,20,311,61,39,106,373,24,35,214,26,2,125,39,13,15,171,22,365,332,113,24,41,92,2,92,199,11,162,1082,144,54,53,20,251,44
"go_karts",59,6,37,6,25,1,28,7,38,6,6,68,3,90,23,38,5,1,24,7,17,11,20,293,69,11,13,11,42,2,15,105,31,93,11,99,136,19,4230,0,1,106,1,5,18,44,15,11,1,13,22,71,0,15,4,11,24,13,76,10,7,27,10,178,6,107,34,2,75,31,2,34,40,20,58,4,26,8,91,30,19,71,19,3,7,17,4,3,22,7,76,242,26,27,30,56,0,13,133,4,70,393,21,23,6,15,177,19
"golfcarts",1,1,0,0,0,0,0,0,0,0,0,2,0,2,0,2,0,0,2,0,0,0,0,5,9,0,1,0,0,0,0,4,1,1,1,2,4,0,0,98,0,2,1,0,0,0,0,0,0,0,0,0,0,0,0,0,1,0,2,0,0,2,0,4,0,1,0,0,2,1,0,2,1,0,1,0,0,1,2,0,0,2,0,0,0,0,0,2,1,0,3,2,3,0,0,1,0,0,3,1,3,11,1,0,0,0,4,0
"hackneys",52,4,11,0,53,4,5,3,3,14,23,23,0,51,15,12,10,0,62,3,6,16,126,169,18,8,8,4,29,1,4,69,42,49,2,28,52,1,1,0,2678,38,0,7,12,24,13,52,1,6,6,19,0,2,1,19,30,17,82,0,5,14,1,136,0,27,6,8,86,32,6,20,13,6,10,1,19,7,67,2,0,40,0,1,3,11,3,10,14,0,40,82,30,3,16,27,5,6,55,0,65,312,35,40,7,4,80,13
"half_tracks",1652,165,511,91,422,285,1009,34,331,241,145,648,44,1252,627,162,153,27,493,104,178,517,662,3905,388,117,294,444,836,23,229,1769,651,1345,61,980,1533,154,106,2,38,68840,8,40,459,933,187,518,21,71,346,1066,0,71,107,134,679,207,2638,3,90,874,36,2246,35,703,302,179,1576,598,18,423,422,176,1055,69,311,475,1870,109,110,1055,97,33,339,225,86,246,490,56,1871,6513,539,246,485,938,48,84,1899,48,1539,6514,653,712,250,88,1807,186
"handcarts",14,0,2,0,3,0,3,1,2,2,2,14,0,7,4,4,0,0,4,0,2,3,11,28,23,2,1,1,5,3,5,15,7,8,2,7,14,2,1,1,0,8,537,0,0,2,11,14,0,1,2,5,0,1,0,0,7,5,17,0,1,2,3,20,1,12,1,1,8,2,0,3,2,1,6,0,3,6,10,0,1,4,1,0,3,1,2,2,2,0,8,17,11,0,8,11,1,3,21,0,5,49,1,11,0,1,16,0
"hearses",33,4,17,1,99,2,13,3,14,6,5,30,3,44,10,23,7,0,42,12,2,9,65,222,27,5,37,24,24,5,9,70,20,49,1,53,80,3,5,0,7,40,0,3055,9,24,19,46,1,5,17,25,0,1,1,78,16,8,71,1,8,9,7,133,1,53,8,6,107,51,0,41,14,16,16,0,62,5,53,5,5,32,4,2,6,15,6,6,10,1,49,81,33,4,33,44,3,3,103,1,84,272,11,84,3,5,102,11
"heavier_than_air_crafts",823,114,261,76,101,138,358,8,136,149,32,149,34,613,336,38,45,5,73,20,62,331,100,644,71,48,48,116,1406,4,55,406,243,502,21,190,306,121,18,0,12,459,0,9,21767,449,45,115,8,62,90,473,0,29,242,30,109,35,986,1,13,430,7,527,29,149,61,109,297,141,5,89,135,25,499,65,55,181,822,21,40,548,24,7,251,72,32,38,354,55,667,721,136,55,92,155,4,30,396,30,344,1406,482,110,225,28,344,106
"helicopters",3693,388,978,165,658,572,1684,20,316,198,64,351,87,1634,1170,140,229,15,242,79,122,711,243,2645,154,61,87,450,1029,4,203,966,608,1366,56,392,753,281,44,0,24,933,2,24,449,64242,56,186,16,183,400,1860,0,64,103,94,217,114,4361,5,42,2026,26,1286,36,665,149,243,765,313,5,340,208,43,1713,133,111,496,2219,77,94,1122,93,20,321,118,44,51,836,85,2416,2096,388,98,328,566,5,81,1792,65,1082,6633,1086,235,469,65,1017,191
"horse_carts",124,11,60,13,59,9,60,11,45,48,25,132,6,198,41,54,13,1,64,14,25,56,252,406,685,70,16,24,104,22,35,174,96,129,14,123,241,17,15,0,13,187,11,19,45,56,8837,346,4,9,21,67,2,17,16,21,102,46,276,1,8,35,12,258,3,94,26,17,175,71,3,43,55,18,60,3,32,48,209,14,35,156,17,8,11,26,27,32,40,5,156,305,82,33,64,89,14,24,236,6,169,685,80,223,18,20,308,33
"horse_drawn_vehicles",428,27,127,23,173,42,208,12,99,104,53,296,11,446,166,95,43,4,193,22,70,131,681,1117,346,141,49,103,278,29,68,555,261,379,15,236,482,33,11,0,52,518,14,46,115,186,346,21280,5,13,64,170,2,27,28,60,307,107,802,1,19,136,20,718,9,227,82,31,522,196,12,100,129,32,184,13,77,132,594,26,53,363,46,21,35,52,58,168,121,9,431,869,209,76,136,238,69,44,556,15,470,2064,220,504,72,26,612,64
"houseboats",20,5,14,3,3,1,7,1,8,18,1,7,2,60,7,2,0,0,5,5,6,9,6,51,5,3,4,4,15,1,6,22,24,16,2,6,11,4,1,0,1,21,0,1,8,16,4,5,1009,2,3,18,0,4,4,2,3,5,35,0,0,7,0,34,4,11,3,3,13,10,0,6,15,1,9,3,2,2,33,2,4,42,4,0,5,2,2,0,10,3,10,30,2,2,9,18,0,2,24,1,30,97,16,6,3,1,14,17
"hovercrafts",245,36,58,27,42,31,111,8,38,34,8,42,7,189,55,41,15,0,46,11,16,91,52,245,23,10,15,21,170,0,21,112,89,125,10,45,74,31,13,0,6,71,1,5,62,183,9,13,2,6349,43,170,0,11,10,15,45,22,243,2,6,135,3,160,11,85,21,36,111,36,1,41,27,12,129,23,16,38,264,26,27,125,24,2,45,12,9,5,107,29,183,201,55,6,43,64,4,10,128,10,79,491,142,26,50,17,113,41
"jeeps",623,38,163,22,215,154,449,15,62,42,10,136,14,369,235,118,66,7,198,50,28,122,107,1358,82,22,194,146,205,1,100,365,121,361,24,477,595,97,22,0,6,346,2,17,90,400,21,64,3,43,22311,300,0,16,26,72,67,59,1058,4,112,294,25,876,12,310,54,40,477,234,4,384,60,110,361,23,271,151,408,22,18,277,39,13,47,195,7,14,125,13,773,720,204,46,196,283,1,32,1039,5,502,2164,124,337,44,39,784,35
"jets",3459,645,1113,177,334,293,1045,26,383,187,61,340,66,1261,1208,130,150,17,286,76,127,602,284,2824,204,94,207,420,1036,8,193,1515,648,1633,60,561,983,357,71,0,19,1066,5,25,473,1860,67,170,18,170,300,64120,0,64,125,127,344,98,3327,5,65,1886,29,1738,41,608,143,213,1042,377,3,367,244,104,2017,142,236,361,2086,94,119,926,91,30,743,176,67,67,771,85,2079,2240,462,114,309,581,8,115,1523,39,1057,6332,820,294,371,68,1284,206
"jinrikishas",1,0,0,0,2,0,0,0,0,0,0,2,0,1,0,0,0,0,1,0,1,1,3,4,2,0,0,0,0,0,0,3,2,0,0,0,2,0,0,0,0,0,0,0,0,0,2,2,0,0,0,0,54,0,0,1,0,1,2,0,0,0,0,3,0,0,0,0,2,0,1,0,0,0,0,0,1,0,3,0,0,1,0,0,0,1,0,0,0,0,1,0,0,0,0,1,0,0,0,0,1,4,0,0,0,0,2,0
"kayaks",77,3,34,12,33,0,21,0,24,23,12,102,3,269,18,20,5,2,13,27,201,37,24,191,37,5,5,9,86,0,9,89,100,44,4,33,59,17,15,0,2,71,1,1,29,64,17,27,4,11,16,64,0,4689,7,8,19,6,140,0,3,25,6,111,18,51,103,13,74,34,4,31,155,5,34,11,5,9,139,25,31,203,45,0,9,18,21,12,49,9,59,172,18,103,17,37,0,5,79,6,73,482,67,25,13,12,73,45
"lighter_than_air_crafts",204,32,82,46,15,33,77,5,58,35,10,31,24,142,73,17,11,1,16,5,10,79,38,150,21,14,19,18,324,0,12,125,54,144,5,66,101,45,4,0,1,107,0,1,242,103,16,28,4,10,26,125,0,7,5724,9,31,8,212,1,4,113,4,168,10,37,12,23,66,38,1,22,26,10,146,18,23,56,193,5,15,132,8,2,75,15,7,7,86,13,174,161,40,11,30,46,2,11,94,8,86,324,99,36,46,6,112,26
"limousines",165,26,72,14,124,13,89,8,22,5,5,103,4,111,51,35,8,3,144,21,19,38,113,937,34,16,216,128,58,4,27,241,46,143,13,348,420,16,11,0,19,134,0,78,30,94,21,60,2,15,72,127,1,8,9,10841,49,39,274,3,48,44,14,631,8,152,13,9,448,151,6,134,31,133,70,10,414,18,156,10,6,82,7,5,14,54,13,20,28,2,173,343,79,16,69,92,3,14,319,1,269,1057,27,205,8,13,497,39
"locomotives",720,72,201,45,141,50,179,14,110,146,88,321,16,555,224,64,56,6,620,21,69,227,1014,2253,185,46,64,63,258,15,98,1714,366,738,48,314,725,77,24,1,30,679,7,16,109,217,102,307,3,45,67,344,0,19,31,49,33943,166,921,2,24,153,27,1417,11,268,80,90,1458,481,1,130,136,39,311,27,76,226,897,35,48,413,54,30,75,71,83,189,229,17,911,1818,350,70,220,528,76,50,946,36,656,3622,311,899,94,46,1069,83
"lorries",299,19,52,11,137,36,96,2,33,46,30,114,3,208,123,22,22,4,190,11,12,80,180,814,75,17,40,46,80,12,82,226,158,236,24,165,268,26,13,0,17,207,5,8,35,114,46,107,5,22,59,98,1,6,8,39,166,12099,500,1,22,79,28,509,7,187,21,46,350,159,2,82,41,28,107,12,46,71,265,10,6,156,5,3,13,36,7,13,51,7,351,399,240,18,150,218,13,20,567,4,338,1213,119,188,25,13,364,34
"military_vehicles",8880,709,1788,299,1320,1217,4796,34,665,558,230,1118,140,3537,2985,234,394,51,827,141,343,1511,1339,7949,614,252,326,1391,2594,24,463,3159,1656,3642,141,1256,2359,623,76,2,82,2638,17,71,986,4361,276,802,35,243,1058,3327,2,140,212,274,921,500,171509,13,142,4908,77,5228,98,1677,364,462,2253,937,17,787,827,178,4350,241,448,1444,6128,125,191,2514,152,47,1147,399,172,212,2037,175,7315,6213,1427,298,763,1438,43,220,5030,120,3159,23453,2555,1022,1079,107,3509,420
"minibikes",8,1,7,0,2,0,4,3,5,0,0,15,0,7,3,6,0,0,3,2,0,3,2,23,4,0,5,2,3,0,0,18,1,7,0,13,15,2,10,0,0,3,0,1,1,5,1,1,0,2,4,5,0,0,1,3,2,1,13,531,2,3,8,26,0,33,6,0,7,6,0,6,6,5,4,1,3,0,7,1,3,3,6,0,2,4,0,0,2,1,16,14,9,12,4,10,0,6,11,0,12,41,1,2,2,7,20,2
"minivans",87,3,41,2,62,8,34,6,13,5,3,49,3,65,22,18,8,3,110,26,8,37,35,626,21,19,99,52,28,1,33,209,30,96,6,257,287,10,7,0,5,90,1,8,13,42,8,19,0,6,112,65,0,3,4,48,24,22,142,2,7818,27,6,480,2,80,12,13,345,229,6,242,30,47,50,1,217,11,91,4,3,53,6,5,14,136,0,11,10,0,126,193,58,16,61,68,0,12,388,1,349,736,21,204,3,12,388,8
"missiles",3820,350,688,146,349,662,2004,12,300,148,45,168,50,1181,1339,88,179,13,190,30,63,596,511,1807,118,85,70,389,1038,6,136,1061,495,2028,50,325,713,224,27,2,14,874,2,9,430,2026,35,136,7,135,294,1886,0,25,113,44,153,79,4908,3,27,64461,5,1406,26,366,69,226,456,208,1,219,124,24,3276,88,63,735,2585,41,77,805,43,11,774,71,33,27,1243,80,2941,2206,392,48,248,463,2,65,1359,48,763,7099,1055,175,601,32,1068,108
"mopeds",65,4,22,4,25,1,11,1,11,5,2,165,3,46,8,8,2,1,15,3,4,12,31,251,34,5,16,9,17,0,5,100,32,36,7,69,98,8,10,0,1,36,3,7,7,26,12,20,0,3,25,29,0,6,4,14,27,28,77,8,6,5,3647,240,3,244,23,3,108,48,2,27,27,26,16,1,20,18,43,11,7,33,19,0,5,17,2,8,8,2,65,93,66,27,42,73,0,44,115,2,81,350,15,26,1,33,151,12
"motor_vehicles",3867,287,1008,197,919,326,1320,46,431,370,206,1797,63,2456,893,378,174,58,1578,185,267,840,1709,16597,691,180,1423,1156,1446,35,393,6037,1229,2815,178,3787,5071,373,178,4,136,2246,20,133,527,1286,258,718,34,160,876,1738,3,111,168,631,1417,509,5228,26,480,1406,240,168890,122,2598,422,267,5107,1479,26,1547,894,1074,1971,137,2581,724,3382,149,168,1679,197,58,661,902,131,428,851,112,3700,6279,1411,434,903,1785,142,322,5480,80,3439,25923,1356,2350,373,166,7361,400
"motorboats",90,7,41,11,14,14,36,1,21,15,3,29,5,162,34,7,2,0,7,8,26,27,14,113,13,6,6,4,74,0,10,55,39,47,4,35,48,23,6,0,0,35,1,1,29,36,3,9,4,11,12,41,0,18,10,8,11,7,98,0,2,26,3,122,2844,46,19,13,43,12,1,15,19,7,38,12,8,19,99,6,9,102,16,1,8,6,8,4,42,8,55,72,24,7,13,22,0,9,56,5,39,228,67,15,23,11,64,29
"motorcycles",1161,86,390,87,385,83,497,27,177,83,53,1057,27,825,316,202,77,9,253,71,102,189,314,3704,257,68,222,183,386,8,143,1047,339,690,73,728,1119,122,107,1,27,703,12,53,149,665,94,227,11,85,310,608,0,51,37,152,268,187,1677,33,80,366,244,2598,46,46517,285,79,1088,412,15,462,281,271,477,35,354,180,887,113,83,557,149,20,119,188,42,70,237,22,1074,1697,502,304,401,629,8,195,1822,22,1056,5417,284,347,65,142,1647,128
"mountain_bikes",185,20,96,11,94,11,88,14,82,40,18,451,8,342,56,51,15,8,69,44,127,65,66,630,63,16,34,33,140,1,40,296,167,147,14,164,249,32,34,0,6,302,1,8,61,149,26,82,3,21,54,143,0,103,12,13,80,21,364,6,12,69,23,422,19,285,12407,17,264,120,10,79,272,42,97,11,28,28,251,64,46,267,93,6,24,74,23,51,57,5,174,572,76,617,85,140,4,41,303,8,261,1255,95,101,17,50,311,62
"oil_tankers",404,53,99,28,68,67,156,1,37,108,20,48,12,314,185,16,30,3,72,16,27,290,55,412,30,9,18,58,189,2,61,227,173,243,16,58,111,32,2,0,8,179,1,6,109,243,17,31,3,36,40,213,0,13,23,9,90,46,462,0,13,226,3,267,13,79,17,10805,194,83,0,53,49,3,183,33,19,76,509,5,19,245,18,7,47,18,18,12,211,39,385,321,101,10,92,110,3,9,323,47,164,772,308,64,135,10,142,71
"passenger_cars",1668,289,648,100,627,130,447,30,265,268,138,1064,37,1423,466,185,88,41,1325,115,161,689,1337,9965,380,105,702,626,648,18,267,3442,1442,1366,102,2021,2734,146,75,2,86,1576,8,107,297,765,175,522,13,111,477,1042,2,74,66,448,1458,350,2253,7,345,456,108,5107,43,1088,264,194,95375,2214,25,933,447,440,642,89,1404,281,2131,85,97,1063,98,55,171,566,144,540,369,37,1641,3935,646,225,625,1249,172,129,3075,71,2214,9965,941,1620,148,105,3489,270
"passenger_vans",610,117,256,43,293,43,159,19,108,94,64,403,19,526,221,73,46,20,522,91,58,280,458,2214,158,38,212,199,278,9,137,1028,435,590,51,657,935,75,31,1,32,598,2,51,141,313,71,196,10,36,234,377,0,34,38,151,481,159,937,6,229,208,48,1479,12,412,120,83,2214,36300,13,529,193,117,280,31,434,102,732,47,30,434,28,17,107,241,43,162,169,15,685,1213,276,89,283,433,27,57,1233,27,2864,2864,253,718,65,38,1113,95
"pedicabs",6,2,6,0,6,0,1,0,3,0,2,35,0,15,2,1,0,0,21,1,2,5,14,39,11,6,2,2,8,1,3,24,14,5,0,12,18,0,2,0,6,18,0,0,5,5,3,12,0,1,4,3,1,4,1,6,1,2,17,0,6,1,2,26,1,15,10,0,25,13,722,8,10,3,3,0,4,0,11,5,1,13,1,0,0,6,0,6,0,0,5,26,2,7,0,7,0,15,19,0,20,58,5,3,0,3,23,1
"pickups",484,52,181,24,295,77,277,17,73,50,22,215,16,384,137,111,74,12,594,124,50,143,145,2076,119,26,290,188,189,4,185,724,151,477,69,760,921,42,34,2,20,423,3,41,89,340,43,100,6,41,384,367,0,31,22,134,130,82,787,6,242,219,27,1547,15,462,79,53,933,529,8,30689,135,176,275,13,529,95,445,36,46,291,53,31,62,338,13,52,88,10,610,925,338,64,405,464,6,39,2148,8,1029,2936,135,587,36,46,1214,34
"recreational_vehicles",473,47,179,29,157,24,96,9,102,98,35,450,16,824,101,65,26,8,118,147,193,180,154,1173,144,27,39,48,338,3,59,546,347,267,21,226,374,54,40,1,13,422,2,14,135,208,55,129,15,27,60,244,0,155,26,31,136,41,827,6,30,124,27,894,19,281,272,49,447,193,10,135,22016,33,147,29,54,63,609,57,69,589,158,12,68,147,53,72,145,35,342,877,127,313,159,307,7,53,628,25,488,2865,321,187,52,38,489,133
"roadsters",159,5,49,6,57,3,37,8,26,4,5,122,3,108,34,63,4,4,93,20,3,24,99,1329,52,8,437,231,66,2,19,403,40,170,11,481,570,20,20,0,6,176,1,16,25,43,18,32,1,12,110,104,0,5,10,133,39,28,178,5,47,24,26,1074,7,271,42,3,440,117,3,176,33,13029,78,6,399,19,163,10,14,79,15,6,11,106,2,12,18,1,238,501,93,34,57,92,0,42,358,1,237,1385,15,208,6,22,781,20
"rockets",3487,351,785,167,329,579,1728,24,447,177,43,272,61,1079,1209,115,200,16,237,46,75,600,413,2287,189,102,128,372,1384,6,183,1310,539,2050,38,459,912,311,58,1,10,1055,6,16,499,1713,60,184,9,129,361,2017,0,34,146,70,311,107,4350,4,50,3276,16,1971,38,477,97,183,642,280,3,275,147,78,69582,98,157,826,2330,74,116,815,51,16,2069,99,39,65,889,68,3008,2548,442,68,264,541,6,84,1545,42,1001,7998,842,261,372,53,1285,127
"seaplanes",277,60,111,42,34,25,52,4,34,34,10,27,19,211,129,13,5,1,23,4,16,89,32,175,13,6,9,16,118,0,13,96,92,108,4,16,51,61,4,0,1,69,0,0,65,133,3,13,3,23,23,142,0,11,18,10,27,12,241,1,1,88,1,137,12,35,11,33,89,31,0,13,29,6,98,5258,16,35,206,3,14,160,9,1,26,11,11,8,126,13,139,116,58,12,14,29,1,10,74,18,55,363,114,14,63,8,70,48
"sedans",322,20,138,17,158,28,147,17,46,18,17,134,9,194,82,88,21,6,298,46,13,73,167,3281,67,30,811,625,133,5,56,870,69,358,37,1554,1716,39,26,0,19,311,3,62,55,111,32,77,2,16,271,236,1,5,23,414,76,46,448,3,217,63,20,2581,8,354,28,19,1404,434,4,529,54,399,157,16,31955,37,332,12,18,145,16,7,25,320,5,25,50,2,503,887,163,16,129,171,1,37,1033,4,780,3473,66,1208,18,33,2164,41
"self_propelled_vehicles",1104,76,163,51,170,409,972,13,99,83,17,119,18,359,314,44,99,1,152,15,20,203,399,876,98,43,39,103,308,7,74,437,130,763,29,261,479,106,8,1,7,475,6,5,181,496,48,132,2,38,151,361,0,9,56,18,226,71,1444,0,11,735,18,724,19,180,28,76,281,102,0,95,63,19,826,35,37,25047,632,21,44,306,26,15,107,32,18,25,258,46,1417,1040,330,17,146,260,8,38,718,19,290,2190,295,165,150,20,730,47
"ships",4724,371,1105,259,567,479,2142,32,544,701,187,789,114,3778,1402,188,193,34,525,97,300,2631,921,5116,463,195,266,673,2370,14,302,2538,2028,2405,104,852,1540,373,91,2,67,1870,10,53,822,2219,209,594,33,264,408,2086,3,139,193,156,897,265,6128,7,91,2585,43,3382,99,887,251,509,2131,732,11,445,609,163,2330,206,332,632,116207,111,181,2569,109,36,992,248,208,193,2064,253,3507,4101,686,208,453,954,40,106,2682,194,1907,12797,3685,753,1191,100,2034,569
"skateboards",75,10,44,8,33,4,49,12,47,16,9,136,8,121,23,28,7,2,30,14,26,23,30,300,49,12,15,15,55,0,31,121,44,74,16,56,95,24,30,0,2,109,0,5,21,77,14,26,2,26,22,94,0,25,5,10,35,10,125,1,4,41,11,149,6,113,64,5,85,47,5,36,57,10,74,3,12,21,111,4918,30,91,22,4,18,23,9,11,34,5,84,212,26,52,35,65,1,23,153,4,118,475,31,39,5,32,137,24
"sleds",158,20,84,20,29,8,60,9,53,30,10,77,4,169,40,31,16,1,32,10,38,59,59,249,71,16,22,14,88,2,31,124,59,98,9,75,111,35,19,0,0,110,1,5,40,94,35,53,4,27,18,119,0,31,15,6,48,6,191,3,3,77,7,168,9,83,46,19,97,30,1,46,69,14,116,14,18,44,181,30,6097,123,100,11,40,25,16,11,67,24,125,238,67,44,54,81,1,17,151,8,89,518,82,64,14,24,158,27
"small_boats",1948,174,608,116,378,246,730,26,298,433,92,581,56,5144,673,137,104,10,277,130,338,822,465,2546,335,110,109,289,1229,10,199,1177,1085,1092,65,496,876,214,71,2,40,1055,4,32,548,1122,156,363,42,125,277,926,1,203,132,82,413,156,2514,3,53,805,33,1679,102,557,267,245,1063,434,13,291,589,79,815,160,145,306,2569,91,123,61035,141,24,177,171,157,124,896,122,1514,1967,402,239,350,599,22,73,1436,107,1072,5144,1511,399,491,97,1079,417
"snowmobiles",145,8,70,16,37,8,30,5,35,16,10,105,2,208,26,33,28,1,30,17,81,31,39,263,38,8,14,6,69,0,33,115,62,82,12,76,109,26,19,0,0,97,1,4,24,93,17,46,4,24,39,91,0,45,8,7,54,5,152,6,6,43,19,197,16,149,93,18,98,28,1,53,158,15,51,9,16,26,109,22,100,141,5954,17,21,30,13,11,31,9,89,233,83,101,54,78,1,30,184,4,77,566,46,47,7,23,172,29
"snowplows",34,5,21,2,17,3,12,1,6,4,2,16,3,29,7,7,15,1,29,7,3,11,15,94,13,3,9,0,12,0,31,49,13,34,8,33,39,2,3,0,1,33,0,2,7,20,8,21,0,2,13,30,0,0,2,5,30,3,47,0,5,11,0,58,1,20,6,7,55,17,0,31,12,6,16,1,7,15,36,4,11,24,17,1804,5,12,4,10,8,2,42,75,43,5,34,42,2,2,87,0,28,140,9,22,3,0,51,1
"spacecrafts",1091,150,323,66,34,45,213,5,212,61,14,93,22,244,228,36,21,3,50,12,24,286,45,531,61,52,28,75,994,2,40,534,169,639,9,94,223,125,7,0,3,339,3,6,251,321,11,35,5,45,47,743,0,9,75,14,75,13,1147,2,14,774,5,661,8,119,24,47,171,107,0,62,68,11,2069,26,25,107,992,18,40,177,21,5,22638,25,13,12,294,40,724,939,97,14,50,121,1,14,243,7,347,3258,364,31,108,10,321,49
"sport_utilities",238,30,78,21,102,27,94,11,47,28,17,162,10,205,64,56,13,9,174,39,29,93,83,1046,60,29,156,99,124,4,45,468,95,186,16,541,608,39,17,0,11,225,1,15,72,118,26,52,2,12,195,176,1,18,15,54,71,36,399,4,136,71,17,902,6,188,74,18,566,241,6,338,147,106,99,11,320,32,248,23,25,171,30,12,25,15480,11,29,66,2,269,463,108,61,91,127,2,46,617,6,379,1413,88,396,25,30,728,45
"steamboats",89,13,48,16,15,3,16,2,33,60,11,65,3,207,21,11,3,0,28,7,56,66,54,249,34,10,4,6,70,1,12,123,133,93,3,44,83,13,4,0,3,86,2,6,32,44,27,58,2,9,7,67,0,21,7,13,83,7,172,0,0,33,2,131,8,42,23,18,144,43,0,13,53,2,39,11,5,18,208,9,16,157,13,4,13,11,4798,31,55,8,61,165,28,32,13,27,0,7,100,19,95,423,113,72,26,4,109,39
"streetcars",116,20,61,9,32,7,32,6,36,37,12,237,8,148,29,23,6,10,128,4,29,62,130,777,50,12,18,14,79,4,21,561,175,114,10,88,155,15,3,2,10,246,2,6,38,51,32,168,0,5,14,67,0,12,7,20,189,13,212,0,11,27,8,428,4,70,51,12,540,162,6,52,72,12,65,8,25,25,193,11,11,124,11,10,12,29,31,9552,33,1,86,642,48,65,67,115,58,9,279,10,243,1098,68,109,11,8,190,30
"submarines",1784,165,434,110,147,195,658,15,200,188,63,160,66,1270,693,56,60,7,96,15,84,561,199,1062,104,62,45,199,737,2,71,794,386,782,32,169,338,171,22,1,14,490,2,10,354,836,40,121,10,107,125,771,0,49,86,28,229,51,2037,2,10,1243,8,851,42,237,57,211,369,169,0,88,145,18,889,126,50,258,2064,34,67,896,31,8,294,66,55,33,35698,222,1174,1035,204,30,99,198,6,26,596,71,481,3187,1145,132,555,37,449,167
"submersibles",146,11,44,22,12,19,82,0,32,46,6,16,9,155,46,6,3,0,9,2,18,67,17,95,7,12,4,9,123,1,9,117,42,68,5,25,36,22,7,0,0,56,0,1,55,85,5,9,3,29,13,85,0,9,13,2,17,7,175,1,0,80,2,112,8,22,5,39,37,15,0,10,35,1,68,13,2,46,253,5,24,122,9,2,40,2,8,1,222,4256,127,117,22,4,10,27,0,5,44,11,55,396,201,6,48,12,45,28
"tanks",4837,350,951,148,782,1036,3820,31,406,374,116,549,69,2082,1677,202,367,25,684,119,139,981,997,5227,396,189,372,749,1511,8,360,2317,889,3106,117,1407,2282,365,76,3,40,1871,8,49,667,2416,156,431,10,183,773,2079,1,59,174,173,911,351,7315,16,126,2941,65,3700,55,1074,174,385,1641,685,5,610,342,238,3008,139,503,1417,3507,84,125,1514,89,42,724,269,61,86,1174,127,114732,4276,1054,158,685,1142,33,139,3373,83,1795,12723,1477,914,674,104,3181,212
"tracked_vehicles",3951,333,1058,197,916,574,2182,54,646,450,237,1590,94,2649,1183,360,319,48,1188,211,357,949,1615,10955,807,227,701,886,1753,40,413,4349,1394,2977,140,2291,3589,332,242,2,82,6513,17,81,721,2096,305,869,30,201,720,2240,0,172,161,343,1818,399,6213,14,193,2206,93,6279,72,1697,572,321,3935,1213,26,925,877,501,2548,116,887,1040,4101,212,238,1967,233,75,939,463,165,642,1035,117,4276,156272,1179,510,970,2096,161,167,4491,97,3255,21095,1418,1629,466,133,5029,358
"tractors",1032,107,330,61,286,148,461,22,117,93,55,266,26,554,277,111,170,5,431,79,56,220,410,1685,163,35,129,85,319,7,242,743,272,791,115,493,770,113,26,3,30,539,11,33,136,388,82,209,2,55,204,462,0,18,40,79,350,240,1427,9,58,392,66,1411,24,502,76,101,646,276,2,338,127,93,442,58,163,330,686,26,67,402,83,43,97,108,28,48,204,22,1054,1179,34134,54,703,932,14,137,1666,19,595,3211,259,397,80,53,1179,61
"trail_bikes",153,15,75,8,69,5,49,8,57,57,18,441,5,330,44,35,11,6,64,39,106,57,69,558,63,12,19,13,124,2,31,275,150,134,13,159,234,24,27,0,3,246,0,4,55,98,33,76,2,6,46,114,0,103,11,16,70,18,298,12,16,48,27,434,7,304,617,10,225,89,7,64,313,34,68,12,16,17,208,52,44,239,101,5,14,61,32,65,30,4,158,510,54,11074,60,109,3,30,259,9,198,1183,80,94,10,34,300,50
"trailer_trucks",473,43,215,27,281,82,263,21,90,73,18,209,19,452,143,98,107,8,401,111,46,153,228,1437,151,27,104,48,175,5,273,521,181,507,96,402,612,41,30,0,16,485,8,33,92,328,64,136,9,43,196,309,0,17,30,69,220,150,763,4,61,248,42,903,13,401,85,92,625,283,0,405,159,57,264,14,129,146,453,35,54,350,54,34,50,91,13,67,99,10,685,970,703,60,27434,2148,25,38,2148,19,625,2148,159,356,36,37,846,51
"trailers",869,76,310,56,400,115,517,26,178,117,58,364,38,823,237,138,128,14,681,182,90,252,537,2983,236,56,144,112,378,9,273,1284,345,878,108,602,983,92,56,1,27,938,11,44,155,566,89,238,18,64,283,581,1,37,46,92,528,218,1438,10,68,463,73,1785,22,629,140,110,1249,433,7,464,307,92,541,29,171,260,954,65,81,599,78,42,121,127,27,115,198,27,1142,2096,932,109,2148,46712,68,84,2148,34,1113,4931,316,574,82,49,1372,107
"tramcars",22,3,5,1,12,1,3,1,16,8,5,18,0,27,12,4,1,1,39,1,2,8,73,224,16,1,0,3,9,4,2,181,30,28,1,18,59,2,0,0,5,48,1,3,4,5,14,69,0,4,1,8,0,0,2,3,76,13,43,0,0,2,0,142,0,8,4,3,172,27,0,6,7,0,6,1,1,8,40,1,1,22,1,2,1,2,0,58,6,0,33,161,14,3,25,68,2455,0,57,0,30,274,8,44,3,0,69,5
"tricycles",340,29,72,21,27,9,31,15,28,11,9,213,13,101,46,36,5,1,38,5,16,31,119,333,51,14,29,11,61,4,13,199,82,95,6,126,216,92,13,0,6,84,3,3,30,81,24,44,2,10,32,115,0,5,11,14,50,20,220,6,12,65,44,322,9,195,41,9,129,57,15,39,53,42,84,10,37,38,106,23,17,73,30,2,14,46,7,9,26,5,139,167,137,30,38,84,0,7010,136,3,116,795,31,65,8,17,347,17
"trucks",3008,243,934,104,1175,548,1801,47,349,360,101,1058,60,2017,1046,364,380,41,1495,240,195,803,906,8622,597,116,559,607,947,24,996,2758,962,2320,300,1868,2742,199,133,3,55,1899,21,103,396,1792,236,556,24,128,1039,1523,0,79,94,319,946,567,5030,11,388,1359,115,5480,56,1822,303,323,3075,1233,19,2148,628,358,1545,74,1033,718,2682,153,151,1436,184,87,243,617,100,279,596,44,3373,4491,1666,259,2148,2148,57,136,122007,87,3042,14267,1008,1540,332,130,4004,224
"tugboats",98,8,28,6,12,7,31,1,15,86,1,21,3,163,21,6,6,1,7,6,18,85,18,127,12,4,1,6,82,1,16,68,102,76,5,23,40,11,4,1,0,48,0,1,30,65,6,15,1,10,5,39,0,6,8,1,36,4,120,0,1,48,2,80,5,22,8,47,71,27,0,8,25,1,42,18,4,19,194,4,8,107,4,0,7,6,19,10,71,11,83,97,19,9,19,34,0,3,87,3476,48,259,152,24,53,4,53,41
"vans",1716,177,621,105,747,162,752,39,323,211,148,873,51,1427,661,186,165,38,894,221,188,474,739,5697,409,127,402,521,863,24,315,2116,776,1321,92,1185,1819,162,70,3,65,1539,5,84,344,1082,169,470,30,79,502,1057,1,73,86,269,656,338,3159,12,349,763,81,3439,39,1056,261,164,2214,2864,20,1029,488,237,1001,55,780,290,1907,118,89,1072,77,28,347,379,95,243,481,55,1795,3255,595,198,625,1113,30,116,3042,48,82569,10027,723,1256,199,78,2401,207
"vehicles",14283,1042,3289,540,2849,1348,6718,91,1540,1182,555,4374,259,8285,3818,885,692,144,3196,596,1052,2631,4407,37582,1891,641,2009,2695,5441,83,996,12377,4716,7480,370,5687,8953,1082,393,11,312,6514,49,272,1406,6633,685,2064,97,491,2164,6332,4,482,324,1057,3622,1213,23453,41,736,7099,350,25923,228,5417,1255,772,9965,2864,58,2936,2865,1385,7998,363,3473,2190,12797,475,518,5144,566,140,3258,1413,423,1098,3187,396,12723,21095,3211,1183,2148,4931,274,795,14267,259,10027,416551,5265,4439,1441,292,14460,1051
"vessels",2206,140,399,103,229,256,941,9,186,399,101,311,43,2251,579,47,81,11,156,37,139,1246,315,1808,179,97,38,250,1336,6,94,1078,1237,993,49,227,453,144,21,1,35,653,1,11,482,1086,80,220,16,142,124,820,0,67,99,27,311,119,2555,1,21,1055,15,1356,67,284,95,308,941,253,5,135,321,15,842,114,66,295,3685,31,82,1511,46,9,364,88,113,68,1145,201,1477,1418,259,80,159,316,8,31,1008,152,723,5265,51487,228,753,38,645,351
"wagons",528,39,188,27,312,58,243,30,122,105,82,325,15,528,165,161,64,9,573,91,68,189,905,3128,346,108,524,372,275,23,136,1352,309,690,50,1309,1746,54,23,0,40,712,11,84,110,235,223,504,6,26,337,294,0,25,36,205,899,188,1022,2,204,175,26,2350,15,347,101,64,1620,718,3,587,187,208,261,14,1208,165,753,39,64,399,47,22,31,396,72,109,132,6,914,1629,397,94,356,574,44,65,1540,24,1256,4439,228,44483,73,41,2187,68
"warships",957,62,161,45,65,151,475,5,66,139,33,44,22,674,348,12,25,4,40,3,37,374,141,417,39,37,16,140,466,5,33,284,212,428,12,79,170,53,6,0,7,250,0,3,225,469,18,72,3,50,44,371,0,13,46,8,94,25,1079,2,3,601,1,373,23,65,17,135,148,65,0,36,52,6,372,63,18,150,1191,5,14,491,7,3,108,25,26,11,555,48,674,466,80,10,36,82,3,8,332,53,199,1441,753,73,18186,11,210,84
"water_scooters",82,11,52,7,31,5,26,13,47,16,3,112,3,123,20,33,15,1,33,9,14,27,36,225,41,18,17,15,59,1,22,138,38,76,17,66,105,20,15,0,4,88,1,5,28,65,20,26,1,17,39,68,0,12,6,13,46,13,107,7,12,32,33,166,11,142,50,10,105,38,3,46,38,22,53,8,33,20,100,32,24,97,23,0,10,30,4,8,37,12,104,133,53,34,37,49,0,17,130,4,78,292,38,41,11,4538,130,30
"wheeled_vehicles",2319,204,645,119,762,493,1372,48,334,228,142,1114,44,1465,533,376,195,25,1266,190,157,484,1298,9668,731,233,1215,1083,854,30,358,3370,637,2248,137,5687,8953,251,177,4,80,1807,16,102,344,1017,308,612,14,113,784,1284,2,73,112,497,1069,364,3509,20,388,1068,151,7361,64,1647,311,142,3489,1113,23,1214,489,781,1285,70,2164,730,2034,137,158,1079,172,51,321,728,109,190,449,45,3181,5029,1179,300,846,1372,69,347,4004,53,2401,14460,645,2187,210,130,126163,211
"yachts",345,42,113,44,76,14,77,4,64,89,27,124,16,580,97,30,13,3,52,19,67,190,96,638,60,20,36,50,250,1,38,263,277,166,7,98,151,44,19,0,13,186,0,11,106,191,33,64,17,41,35,206,0,45,26,39,83,34,420,2,8,108,12,400,29,128,62,71,270,95,1,34,133,20,127,48,41,47,569,24,27,417,29,1,49,45,39,30,167,28,212,358,61,50,51,107,5,17,224,41,207,1051,351,68,84,30,211,12039
