x,y,sanderson,patterns,meanh,fu,strmatch,label
ambulances,ambulances,1,1,1,1,1,1
buss,ambulances,0,0,0,0,0,0
cars,ambulances,1,0,1,1,0,1
convertibles,ambulances,0,0,0,0,0,0
coupes,ambulances,0,0,0,0,0,0
dump_trucks,ambulances,0,0,0,0,0,0
electrics,ambulances,0,0,0,0,0,0
fire_engines,ambulances,0,0,0,0,0,0
four_wheel_drives,ambulances,0,0,0,0,0,0
go_karts,ambulances,0,0,0,0,0,0
golfcarts,ambulances,0,0,0,0,0,0
hearses,ambulances,0,0,0,0,0,0
jeeps,ambulances,0,0,0,0,0,0
limousines,ambulances,0,0,0,0,0,0
minibikes,ambulances,0,0,0,0,0,0
minivans,ambulances,0,0,0,0,0,0
mopeds,ambulances,0,0,0,0,0,0
motor_vehicles,ambulances,0,0,0,0,0,1
motorcycles,ambulances,0,0,1,0,0,0
passenger_cars,ambulances,0,0,0,0,0,0
passenger_vans,ambulances,0,0,0,0,0,0
pickups,ambulances,0,0,0,0,0,0
roadsters,ambulances,0,0,0,0,0,0
sedans,ambulances,0,0,0,0,0,0
snowplows,ambulances,0,0,0,0,0,0
sport_utilities,ambulances,0,0,0,0,0,0
trail_bikes,ambulances,0,0,0,0,0,0
trailer_trucks,ambulances,0,0,0,0,0,0
trucks,ambulances,0,0,1,0,0,0
vans,ambulances,0,0,0,0,0,0
ambulances,buss,0,0,0,0,0,0
buss,buss,1,1,1,1,1,1
cars,buss,0,0,1,1,0,1
convertibles,buss,0,0,0,0,0,0
coupes,buss,0,0,0,0,0,0
dump_trucks,buss,0,0,0,0,0,0
electrics,buss,0,0,0,0,0,0
fire_engines,buss,0,0,0,0,0,0
four_wheel_drives,buss,0,0,0,0,0,0
go_karts,buss,0,0,0,0,0,0
golfcarts,buss,0,0,0,0,0,0
hearses,buss,0,0,0,0,0,0
jeeps,buss,0,0,0,0,0,0
limousines,buss,0,0,0,0,0,0
minibikes,buss,0,0,0,0,0,0
minivans,buss,0,0,0,0,0,0
mopeds,buss,0,0,0,0,0,0
motor_vehicles,buss,0,0,0,0,0,1
motorcycles,buss,0,0,1,0,0,0
passenger_cars,buss,0,0,0,0,0,0
passenger_vans,buss,0,0,0,0,0,0
pickups,buss,0,0,0,0,0,0
roadsters,buss,0,0,0,0,0,0
sedans,buss,0,0,0,0,0,0
snowplows,buss,0,0,0,0,0,0
sport_utilities,buss,0,0,0,0,0,0
trail_bikes,buss,0,0,0,0,0,0
trailer_trucks,buss,0,0,0,0,0,0
trucks,buss,0,0,0,0,0,0
vans,buss,0,0,0,0,0,0
ambulances,cars,0,0,0,0,0,0
buss,cars,0,0,0,0,0,0
cars,cars,1,1,1,1,1,1
convertibles,cars,0,0,0,0,0,0
coupes,cars,0,0,0,0,0,0
dump_trucks,cars,0,0,0,0,0,0
electrics,cars,0,0,0,0,0,0
fire_engines,cars,0,0,0,0,0,0
four_wheel_drives,cars,0,0,0,0,0,0
go_karts,cars,0,0,0,0,0,0
golfcarts,cars,0,0,0,0,0,0
hearses,cars,0,0,0,0,0,0
jeeps,cars,0,0,0,0,0,0
limousines,cars,0,0,0,0,0,0
minibikes,cars,0,0,0,0,0,0
minivans,cars,0,0,0,0,0,0
mopeds,cars,0,0,0,0,0,0
motor_vehicles,cars,0,1,0,0,0,1
motorcycles,cars,0,0,1,0,0,0
passenger_cars,cars,0,0,0,0,0,0
passenger_vans,cars,0,0,0,0,0,0
pickups,cars,0,0,0,0,0,0
roadsters,cars,0,0,0,0,0,0
sedans,cars,0,0,0,0,0,0
snowplows,cars,0,0,0,0,0,0
sport_utilities,cars,0,0,0,0,0,0
trail_bikes,cars,0,0,0,0,0,0
trailer_trucks,cars,0,0,0,0,0,0
trucks,cars,0,0,0,0,0,0
vans,cars,0,0,0,0,0,0
ambulances,convertibles,0,0,0,0,0,0
buss,convertibles,0,0,0,0,0,0
cars,convertibles,1,0,1,1,0,1
convertibles,convertibles,1,1,1,1,1,1
coupes,convertibles,0,0,0,0,0,0
dump_trucks,convertibles,0,0,0,0,0,0
electrics,convertibles,0,0,0,0,0,0
fire_engines,convertibles,0,0,0,0,0,0
four_wheel_drives,convertibles,0,0,0,0,0,0
go_karts,convertibles,0,0,0,0,0,0
golfcarts,convertibles,0,0,0,0,0,0
hearses,convertibles,0,0,0,0,0,0
jeeps,convertibles,0,0,0,0,0,0
limousines,convertibles,0,0,0,0,0,0
minibikes,convertibles,0,0,0,0,0,0
minivans,convertibles,0,0,0,0,0,0
mopeds,convertibles,0,0,0,0,0,0
motor_vehicles,convertibles,0,0,0,0,0,1
motorcycles,convertibles,0,0,1,0,0,0
passenger_cars,convertibles,0,0,0,0,0,0
passenger_vans,convertibles,0,0,0,0,0,0
pickups,convertibles,0,0,0,0,0,0
roadsters,convertibles,0,0,0,0,0,0
sedans,convertibles,0,0,0,0,0,0
snowplows,convertibles,0,0,0,0,0,0
sport_utilities,convertibles,0,0,0,0,0,0
trail_bikes,convertibles,0,0,0,0,0,0
trailer_trucks,convertibles,0,0,0,0,0,0
trucks,convertibles,0,0,0,0,0,0
vans,convertibles,0,0,0,0,0,0
ambulances,coupes,0,0,0,0,0,0
buss,coupes,0,0,0,0,0,0
cars,coupes,1,0,1,1,0,1
convertibles,coupes,0,0,0,0,0,0
coupes,coupes,1,1,1,1,1,1
dump_trucks,coupes,0,0,0,0,0,0
electrics,coupes,0,0,0,0,0,0
fire_engines,coupes,0,0,0,0,0,0
four_wheel_drives,coupes,0,0,0,0,0,0
go_karts,coupes,0,0,0,0,0,0
golfcarts,coupes,0,0,0,0,0,0
hearses,coupes,0,0,0,0,0,0
jeeps,coupes,0,0,0,0,0,0
limousines,coupes,0,0,0,0,0,0
minibikes,coupes,0,0,0,0,0,0
minivans,coupes,0,0,0,0,0,0
mopeds,coupes,0,0,0,0,0,0
motor_vehicles,coupes,0,0,0,0,0,1
motorcycles,coupes,0,0,1,0,0,0
passenger_cars,coupes,0,0,0,0,0,0
passenger_vans,coupes,0,0,0,0,0,0
pickups,coupes,0,0,0,0,0,0
roadsters,coupes,0,0,0,0,0,0
sedans,coupes,0,0,0,0,0,0
snowplows,coupes,0,0,0,0,0,0
sport_utilities,coupes,0,0,0,0,0,0
trail_bikes,coupes,0,0,0,0,0,0
trailer_trucks,coupes,0,0,0,0,0,0
trucks,coupes,0,0,0,0,0,0
vans,coupes,0,0,0,0,0,0
ambulances,dump_trucks,0,0,0,0,0,0
buss,dump_trucks,0,0,0,0,0,0
cars,dump_trucks,1,1,1,1,0,0
convertibles,dump_trucks,0,0,0,0,0,0
coupes,dump_trucks,0,0,0,0,0,0
dump_trucks,dump_trucks,1,1,1,1,1,1
electrics,dump_trucks,0,0,0,0,0,0
fire_engines,dump_trucks,0,0,0,0,0,0
four_wheel_drives,dump_trucks,0,0,0,0,0,0
go_karts,dump_trucks,0,0,0,0,0,0
golfcarts,dump_trucks,0,0,0,0,0,0
hearses,dump_trucks,0,0,0,0,0,0
jeeps,dump_trucks,0,0,0,0,0,0
limousines,dump_trucks,0,0,0,0,0,0
minibikes,dump_trucks,0,0,0,0,0,0
minivans,dump_trucks,0,0,0,0,0,0
mopeds,dump_trucks,0,0,0,0,0,0
motor_vehicles,dump_trucks,0,1,0,0,0,1
motorcycles,dump_trucks,0,0,1,0,0,0
passenger_cars,dump_trucks,0,0,0,0,0,0
passenger_vans,dump_trucks,0,0,0,0,0,0
pickups,dump_trucks,0,0,0,0,0,0
roadsters,dump_trucks,0,0,0,0,0,0
sedans,dump_trucks,0,0,0,0,0,0
snowplows,dump_trucks,0,0,0,0,0,0
sport_utilities,dump_trucks,0,0,0,0,0,0
trail_bikes,dump_trucks,0,0,0,0,0,0
trailer_trucks,dump_trucks,0,0,0,0,0,0
trucks,dump_trucks,1,1,1,1,1,1
vans,dump_trucks,0,0,0,0,0,0
ambulances,electrics,0,0,0,0,0,0
buss,electrics,0,0,0,0,0,0
cars,electrics,1,0,1,1,0,1
convertibles,electrics,0,0,0,0,0,0
coupes,electrics,0,0,0,0,0,0
dump_trucks,electrics,0,0,0,0,0,0
electrics,electrics,1,1,1,1,1,1
fire_engines,electrics,0,0,0,0,0,0
four_wheel_drives,electrics,0,0,0,0,0,0
go_karts,electrics,0,0,0,0,0,0
golfcarts,electrics,0,0,0,0,0,0
hearses,electrics,0,0,0,0,0,0
jeeps,electrics,0,0,0,0,0,0
limousines,electrics,0,0,0,0,0,0
minibikes,electrics,0,0,0,0,0,0
minivans,electrics,0,0,0,0,0,0
mopeds,electrics,0,0,0,0,0,0
motor_vehicles,electrics,1,0,0,0,0,1
motorcycles,electrics,0,0,1,0,0,0
passenger_cars,electrics,0,0,0,0,0,0
passenger_vans,electrics,0,0,0,0,0,0
pickups,electrics,0,0,0,0,0,0
roadsters,electrics,0,0,0,0,0,0
sedans,electrics,0,0,0,0,0,0
snowplows,electrics,0,0,0,0,0,0
sport_utilities,electrics,0,0,0,0,0,0
trail_bikes,electrics,0,0,0,0,0,0
trailer_trucks,electrics,0,0,0,0,0,0
trucks,electrics,0,0,0,0,0,0
vans,electrics,0,0,0,0,0,0
ambulances,fire_engines,0,0,0,0,0,0
buss,fire_engines,0,0,0,0,0,0
cars,fire_engines,1,0,0,0,0,0
convertibles,fire_engines,0,0,0,0,0,0
coupes,fire_engines,0,0,0,0,0,0
dump_trucks,fire_engines,0,0,0,0,0,0
electrics,fire_engines,0,0,0,0,0,0
fire_engines,fire_engines,1,1,1,1,1,1
four_wheel_drives,fire_engines,0,0,0,0,0,0
go_karts,fire_engines,0,0,0,0,0,0
golfcarts,fire_engines,0,0,0,0,0,0
hearses,fire_engines,0,0,0,0,0,0
jeeps,fire_engines,0,0,0,0,0,0
limousines,fire_engines,0,0,0,0,0,0
minibikes,fire_engines,0,0,0,0,0,0
minivans,fire_engines,0,0,0,0,0,0
mopeds,fire_engines,0,0,0,0,0,0
motor_vehicles,fire_engines,0,0,0,0,0,1
motorcycles,fire_engines,0,0,0,0,0,0
passenger_cars,fire_engines,0,0,0,0,0,0
passenger_vans,fire_engines,0,0,0,0,0,0
pickups,fire_engines,0,0,0,0,0,0
roadsters,fire_engines,0,0,0,0,0,0
sedans,fire_engines,0,0,0,0,0,0
snowplows,fire_engines,0,0,0,0,0,0
sport_utilities,fire_engines,0,0,0,0,0,0
trail_bikes,fire_engines,0,0,0,0,0,0
trailer_trucks,fire_engines,0,0,0,0,0,0
trucks,fire_engines,0,0,0,0,0,1
vans,fire_engines,0,0,0,0,0,0
ambulances,four_wheel_drives,0,0,0,0,0,0
buss,four_wheel_drives,0,0,0,0,0,0
cars,four_wheel_drives,1,0,0,0,0,0
convertibles,four_wheel_drives,0,0,0,0,0,0
coupes,four_wheel_drives,0,0,0,0,0,0
dump_trucks,four_wheel_drives,0,0,0,0,0,0
electrics,four_wheel_drives,0,0,0,0,0,0
fire_engines,four_wheel_drives,0,0,0,0,0,0
four_wheel_drives,four_wheel_drives,1,1,1,1,1,1
go_karts,four_wheel_drives,0,0,0,0,0,0
golfcarts,four_wheel_drives,0,0,0,0,0,0
hearses,four_wheel_drives,0,0,0,0,0,0
jeeps,four_wheel_drives,0,0,0,0,0,0
limousines,four_wheel_drives,0,0,0,0,0,0
minibikes,four_wheel_drives,0,0,0,0,0,0
minivans,four_wheel_drives,0,0,0,0,0,0
mopeds,four_wheel_drives,0,0,0,0,0,0
motor_vehicles,four_wheel_drives,0,0,0,0,0,1
motorcycles,four_wheel_drives,0,0,0,0,0,0
passenger_cars,four_wheel_drives,0,0,0,0,0,0
passenger_vans,four_wheel_drives,0,0,0,0,0,0
pickups,four_wheel_drives,0,0,0,0,0,0
roadsters,four_wheel_drives,0,0,0,0,0,0
sedans,four_wheel_drives,0,0,0,0,0,0
snowplows,four_wheel_drives,0,0,0,0,0,0
sport_utilities,four_wheel_drives,0,0,0,0,0,0
trail_bikes,four_wheel_drives,0,0,0,0,0,0
trailer_trucks,four_wheel_drives,0,0,0,0,0,0
trucks,four_wheel_drives,0,0,0,0,0,0
vans,four_wheel_drives,0,0,0,0,0,0
ambulances,go_karts,0,0,0,0,0,0
buss,go_karts,0,0,0,0,0,0
cars,go_karts,1,0,0,0,0,0
convertibles,go_karts,0,0,0,0,0,0
coupes,go_karts,0,0,0,0,0,0
dump_trucks,go_karts,0,0,0,0,0,0
electrics,go_karts,0,0,0,0,0,0
fire_engines,go_karts,0,0,0,0,0,0
four_wheel_drives,go_karts,0,0,0,0,0,0
go_karts,go_karts,1,1,1,1,1,1
golfcarts,go_karts,0,0,0,0,0,0
hearses,go_karts,0,0,0,0,0,0
jeeps,go_karts,0,0,0,0,0,0
limousines,go_karts,0,0,0,0,0,0
minibikes,go_karts,0,0,0,0,0,0
minivans,go_karts,0,0,0,0,0,0
mopeds,go_karts,0,0,0,0,0,0
motor_vehicles,go_karts,0,0,0,0,0,1
motorcycles,go_karts,0,0,0,0,0,0
passenger_cars,go_karts,0,0,0,0,0,0
passenger_vans,go_karts,0,0,0,0,0,0
pickups,go_karts,0,0,0,0,0,0
roadsters,go_karts,0,0,0,0,0,0
sedans,go_karts,0,0,0,0,0,0
snowplows,go_karts,0,0,0,0,0,0
sport_utilities,go_karts,0,0,0,0,0,0
trail_bikes,go_karts,0,0,0,0,0,0
trailer_trucks,go_karts,0,0,0,0,0,0
trucks,go_karts,0,0,0,0,0,0
vans,go_karts,0,0,0,0,0,0
ambulances,golfcarts,0,0,0,0,0,0
buss,golfcarts,0,0,0,0,0,0
cars,golfcarts,1,0,0,0,0,0
convertibles,golfcarts,0,0,0,0,0,0
coupes,golfcarts,0,0,0,0,0,0
dump_trucks,golfcarts,0,0,0,0,0,0
electrics,golfcarts,0,0,0,0,0,0
fire_engines,golfcarts,0,0,0,0,0,0
four_wheel_drives,golfcarts,0,0,0,0,0,0
go_karts,golfcarts,0,0,0,0,0,0
golfcarts,golfcarts,1,1,1,1,1,1
hearses,golfcarts,0,0,0,0,0,0
jeeps,golfcarts,0,0,0,0,0,0
limousines,golfcarts,0,0,0,0,0,0
minibikes,golfcarts,0,0,0,0,0,0
minivans,golfcarts,0,0,0,0,0,0
mopeds,golfcarts,0,0,0,0,0,0
motor_vehicles,golfcarts,0,0,0,0,0,1
motorcycles,golfcarts,0,0,0,0,0,0
passenger_cars,golfcarts,0,0,0,0,0,0
passenger_vans,golfcarts,0,0,0,0,0,0
pickups,golfcarts,0,0,0,0,0,0
roadsters,golfcarts,0,0,0,0,0,0
sedans,golfcarts,0,0,0,0,0,0
snowplows,golfcarts,0,0,0,0,0,0
sport_utilities,golfcarts,0,0,0,0,0,0
trail_bikes,golfcarts,0,0,0,0,0,0
trailer_trucks,golfcarts,0,0,0,0,0,0
trucks,golfcarts,0,0,0,0,0,0
vans,golfcarts,0,0,0,0,0,0
ambulances,hearses,0,0,0,0,0,0
buss,hearses,0,0,0,0,0,0
cars,hearses,1,0,1,0,0,0
convertibles,hearses,0,0,0,0,0,0
coupes,hearses,0,0,0,0,0,0
dump_trucks,hearses,0,0,0,0,0,0
electrics,hearses,0,0,0,0,0,0
fire_engines,hearses,0,0,0,0,0,0
four_wheel_drives,hearses,0,0,0,0,0,0
go_karts,hearses,0,0,0,0,0,0
golfcarts,hearses,0,0,0,0,0,0
hearses,hearses,1,1,1,1,1,1
jeeps,hearses,0,0,0,0,0,0
limousines,hearses,0,0,0,0,0,0
minibikes,hearses,0,0,0,0,0,0
minivans,hearses,0,0,0,0,0,0
mopeds,hearses,0,0,0,0,0,0
motor_vehicles,hearses,0,0,0,0,0,1
motorcycles,hearses,0,0,1,0,0,0
passenger_cars,hearses,0,0,0,0,0,0
passenger_vans,hearses,0,0,0,0,0,0
pickups,hearses,0,0,0,0,0,0
roadsters,hearses,0,0,0,0,0,0
sedans,hearses,0,0,0,0,0,0
snowplows,hearses,0,0,0,0,0,0
sport_utilities,hearses,0,0,0,0,0,0
trail_bikes,hearses,0,0,0,0,0,0
trailer_trucks,hearses,0,0,0,0,0,0
trucks,hearses,0,0,0,0,0,0
vans,hearses,0,0,0,0,0,0
ambulances,jeeps,0,0,0,0,0,0
buss,jeeps,0,0,0,0,0,0
cars,jeeps,1,0,1,1,0,1
convertibles,jeeps,0,0,0,0,0,0
coupes,jeeps,0,0,0,0,0,0
dump_trucks,jeeps,0,0,0,0,0,0
electrics,jeeps,0,0,0,0,0,0
fire_engines,jeeps,0,0,0,0,0,0
four_wheel_drives,jeeps,0,0,0,0,0,0
go_karts,jeeps,0,0,0,0,0,0
golfcarts,jeeps,0,0,0,0,0,0
hearses,jeeps,0,0,0,0,0,0
jeeps,jeeps,1,1,1,1,1,1
limousines,jeeps,0,0,0,0,0,0
minibikes,jeeps,0,0,0,0,0,0
minivans,jeeps,0,0,0,0,0,0
mopeds,jeeps,0,0,0,0,0,0
motor_vehicles,jeeps,0,0,0,0,0,1
motorcycles,jeeps,0,0,1,0,0,0
passenger_cars,jeeps,0,0,0,0,0,0
passenger_vans,jeeps,0,0,0,0,0,0
pickups,jeeps,0,0,0,0,0,0
roadsters,jeeps,0,0,0,0,0,0
sedans,jeeps,0,0,0,0,0,0
snowplows,jeeps,0,0,0,0,0,0
sport_utilities,jeeps,0,0,0,0,0,0
trail_bikes,jeeps,0,0,0,0,0,0
trailer_trucks,jeeps,0,0,0,0,0,0
trucks,jeeps,0,0,0,0,0,0
vans,jeeps,0,0,0,0,0,0
ambulances,limousines,0,0,0,0,0,0
buss,limousines,0,0,0,0,0,0
cars,limousines,1,0,1,1,0,1
convertibles,limousines,0,0,0,0,0,0
coupes,limousines,0,0,0,0,0,0
dump_trucks,limousines,0,0,0,0,0,0
electrics,limousines,0,0,0,0,0,0
fire_engines,limousines,0,0,0,0,0,0
four_wheel_drives,limousines,0,0,0,0,0,0
go_karts,limousines,0,0,0,0,0,0
golfcarts,limousines,0,0,0,0,0,0
hearses,limousines,0,0,0,0,0,0
jeeps,limousines,0,0,0,0,0,0
limousines,limousines,1,1,1,1,1,1
minibikes,limousines,0,0,0,0,0,0
minivans,limousines,0,0,0,0,0,0
mopeds,limousines,0,0,0,0,0,0
motor_vehicles,limousines,0,0,0,0,0,1
motorcycles,limousines,0,0,1,0,0,0
passenger_cars,limousines,0,0,0,0,0,0
passenger_vans,limousines,0,0,0,0,0,0
pickups,limousines,0,0,0,0,0,0
roadsters,limousines,0,0,0,0,0,0
sedans,limousines,0,0,0,0,0,0
snowplows,limousines,0,0,0,0,0,0
sport_utilities,limousines,0,0,0,0,0,0
trail_bikes,limousines,0,0,0,0,0,0
trailer_trucks,limousines,0,0,0,0,0,0
trucks,limousines,0,0,0,0,0,0
vans,limousines,0,0,0,0,0,0
ambulances,minibikes,0,0,0,0,0,0
buss,minibikes,0,0,0,0,0,0
cars,minibikes,0,0,1,1,0,0
convertibles,minibikes,0,0,0,0,0,0
coupes,minibikes,0,0,0,0,0,0
dump_trucks,minibikes,0,0,0,0,0,0
electrics,minibikes,0,0,0,0,0,0
fire_engines,minibikes,0,0,0,0,0,0
four_wheel_drives,minibikes,0,0,0,0,0,0
go_karts,minibikes,0,0,0,0,0,0
golfcarts,minibikes,0,0,0,0,0,0
hearses,minibikes,0,0,0,0,0,0
jeeps,minibikes,0,0,0,0,0,0
limousines,minibikes,0,0,0,0,0,0
minibikes,minibikes,1,1,1,1,1,1
minivans,minibikes,0,0,0,0,0,0
mopeds,minibikes,0,0,0,0,0,0
motor_vehicles,minibikes,0,0,0,0,0,1
motorcycles,minibikes,0,0,1,1,0,1
passenger_cars,minibikes,0,0,0,0,0,0
passenger_vans,minibikes,0,0,0,0,0,0
pickups,minibikes,0,0,0,0,0,0
roadsters,minibikes,0,0,0,0,0,0
sedans,minibikes,0,0,0,0,0,0
snowplows,minibikes,0,0,0,0,0,0
sport_utilities,minibikes,0,0,0,0,0,0
trail_bikes,minibikes,0,0,0,0,0,0
trailer_trucks,minibikes,0,0,0,0,0,0
trucks,minibikes,0,0,0,0,0,0
vans,minibikes,0,0,0,0,0,0
ambulances,minivans,0,0,0,0,0,0
buss,minivans,0,0,0,0,0,0
cars,minivans,0,0,1,0,0,1
convertibles,minivans,0,0,0,0,0,0
coupes,minivans,0,0,0,0,0,0
dump_trucks,minivans,0,0,0,0,0,0
electrics,minivans,0,0,0,0,0,0
fire_engines,minivans,0,0,0,0,0,0
four_wheel_drives,minivans,0,0,0,0,0,0
go_karts,minivans,0,0,0,0,0,0
golfcarts,minivans,0,0,0,0,0,0
hearses,minivans,0,0,0,0,0,0
jeeps,minivans,0,0,0,0,0,0
limousines,minivans,0,0,0,0,0,0
minibikes,minivans,0,0,0,0,0,0
minivans,minivans,1,1,1,1,1,1
mopeds,minivans,0,0,0,0,0,0
motor_vehicles,minivans,0,0,0,0,0,1
motorcycles,minivans,0,0,1,0,0,0
passenger_cars,minivans,0,0,0,0,0,0
passenger_vans,minivans,0,0,0,0,0,1
pickups,minivans,0,0,0,0,0,0
roadsters,minivans,0,0,0,0,0,0
sedans,minivans,0,1,0,0,0,0
snowplows,minivans,0,0,0,0,0,0
sport_utilities,minivans,0,0,0,0,0,0
trail_bikes,minivans,0,0,0,0,0,0
trailer_trucks,minivans,0,0,0,0,0,0
trucks,minivans,0,0,0,0,0,1
vans,minivans,0,0,0,0,1,1
ambulances,mopeds,0,0,0,0,0,0
buss,mopeds,0,0,0,0,0,0
cars,mopeds,1,0,1,0,0,0
convertibles,mopeds,0,0,0,0,0,0
coupes,mopeds,0,0,0,0,0,0
dump_trucks,mopeds,0,0,0,0,0,0
electrics,mopeds,0,0,0,0,0,0
fire_engines,mopeds,0,0,0,0,0,0
four_wheel_drives,mopeds,0,0,0,0,0,0
go_karts,mopeds,0,0,0,0,0,0
golfcarts,mopeds,0,0,0,0,0,0
hearses,mopeds,0,0,0,0,0,0
jeeps,mopeds,0,0,0,0,0,0
limousines,mopeds,0,0,0,0,0,0
minibikes,mopeds,0,0,0,0,0,1
minivans,mopeds,0,0,0,0,0,0
mopeds,mopeds,1,1,1,1,1,1
motor_vehicles,mopeds,1,0,0,0,0,1
motorcycles,mopeds,1,0,1,0,0,1
passenger_cars,mopeds,0,0,0,0,0,0
passenger_vans,mopeds,0,0,0,0,0,0
pickups,mopeds,0,0,0,0,0,0
roadsters,mopeds,0,0,0,0,0,0
sedans,mopeds,0,0,0,0,0,0
snowplows,mopeds,0,0,0,0,0,0
sport_utilities,mopeds,0,0,0,0,0,0
trail_bikes,mopeds,0,0,0,0,0,0
trailer_trucks,mopeds,0,0,0,0,0,0
trucks,mopeds,0,0,0,0,0,0
vans,mopeds,0,0,0,0,0,0
ambulances,motor_vehicles,0,0,0,0,0,0
buss,motor_vehicles,0,0,0,0,0,0
cars,motor_vehicles,1,0,0,0,0,0
convertibles,motor_vehicles,0,0,0,0,0,0
coupes,motor_vehicles,0,0,0,0,0,0
dump_trucks,motor_vehicles,0,0,0,0,0,0
electrics,motor_vehicles,0,0,0,0,0,0
fire_engines,motor_vehicles,0,0,0,0,0,0
four_wheel_drives,motor_vehicles,0,0,0,0,0,0
go_karts,motor_vehicles,0,0,0,0,0,0
golfcarts,motor_vehicles,0,0,0,0,0,0
hearses,motor_vehicles,0,0,0,0,0,0
jeeps,motor_vehicles,0,0,0,0,0,0
limousines,motor_vehicles,0,0,0,0,0,0
minibikes,motor_vehicles,0,0,0,0,0,0
minivans,motor_vehicles,0,0,0,0,0,0
mopeds,motor_vehicles,0,0,0,0,0,0
motor_vehicles,motor_vehicles,1,1,1,1,1,1
motorcycles,motor_vehicles,0,0,0,0,0,0
passenger_cars,motor_vehicles,0,0,0,0,0,0
passenger_vans,motor_vehicles,0,0,0,0,0,0
pickups,motor_vehicles,0,0,0,0,0,0
roadsters,motor_vehicles,0,0,0,0,0,0
sedans,motor_vehicles,0,0,0,0,0,0
snowplows,motor_vehicles,0,0,0,0,0,0
sport_utilities,motor_vehicles,0,0,0,0,0,0
trail_bikes,motor_vehicles,0,0,0,0,0,0
trailer_trucks,motor_vehicles,0,0,0,0,0,0
trucks,motor_vehicles,0,0,0,0,0,0
vans,motor_vehicles,0,0,0,0,0,0
ambulances,motorcycles,0,0,0,0,0,0
buss,motorcycles,0,0,0,0,0,0
cars,motorcycles,1,1,1,1,0,0
convertibles,motorcycles,0,0,0,0,0,0
coupes,motorcycles,0,0,0,0,0,0
dump_trucks,motorcycles,0,0,0,0,0,0
electrics,motorcycles,0,0,0,0,0,0
fire_engines,motorcycles,0,0,0,0,0,0
four_wheel_drives,motorcycles,0,0,0,0,0,0
go_karts,motorcycles,0,0,0,0,0,0
golfcarts,motorcycles,0,0,0,0,0,0
hearses,motorcycles,0,0,0,0,0,0
jeeps,motorcycles,0,0,0,0,0,0
limousines,motorcycles,0,0,0,0,0,0
minibikes,motorcycles,0,0,0,0,0,0
minivans,motorcycles,0,0,0,0,0,0
mopeds,motorcycles,0,0,0,0,0,0
motor_vehicles,motorcycles,1,1,0,0,0,1
motorcycles,motorcycles,1,1,1,1,1,1
passenger_cars,motorcycles,0,0,0,0,0,0
passenger_vans,motorcycles,0,0,0,0,0,0
pickups,motorcycles,0,0,0,0,0,0
roadsters,motorcycles,0,0,0,0,0,0
sedans,motorcycles,0,0,0,0,0,0
snowplows,motorcycles,0,0,0,0,0,0
sport_utilities,motorcycles,0,0,0,0,0,0
trail_bikes,motorcycles,0,0,0,0,0,0
trailer_trucks,motorcycles,0,0,0,0,0,0
trucks,motorcycles,0,0,0,0,0,0
vans,motorcycles,0,0,0,0,0,0
ambulances,passenger_cars,0,0,0,0,0,0
buss,passenger_cars,0,0,0,0,0,0
cars,passenger_cars,1,0,0,0,1,1
convertibles,passenger_cars,0,0,0,0,0,0
coupes,passenger_cars,0,0,0,0,0,0
dump_trucks,passenger_cars,0,0,0,0,0,0
electrics,passenger_cars,0,0,0,0,0,0
fire_engines,passenger_cars,0,0,0,0,0,0
four_wheel_drives,passenger_cars,0,0,0,0,0,0
go_karts,passenger_cars,0,0,0,0,0,0
golfcarts,passenger_cars,0,0,0,0,0,0
hearses,passenger_cars,0,0,0,0,0,0
jeeps,passenger_cars,0,0,0,0,0,0
limousines,passenger_cars,0,0,0,0,0,0
minibikes,passenger_cars,0,0,0,0,0,0
minivans,passenger_cars,0,0,0,0,0,0
mopeds,passenger_cars,0,0,0,0,0,0
motor_vehicles,passenger_cars,0,0,0,0,0,1
motorcycles,passenger_cars,0,0,0,0,0,0
passenger_cars,passenger_cars,1,1,1,1,1,1
passenger_vans,passenger_cars,0,0,0,0,0,0
pickups,passenger_cars,0,0,0,0,0,0
roadsters,passenger_cars,0,0,0,0,0,0
sedans,passenger_cars,0,0,0,0,0,0
snowplows,passenger_cars,0,0,0,0,0,0
sport_utilities,passenger_cars,0,0,0,0,0,0
trail_bikes,passenger_cars,0,0,0,0,0,0
trailer_trucks,passenger_cars,0,0,0,0,0,0
trucks,passenger_cars,0,0,0,0,0,0
vans,passenger_cars,0,0,0,0,0,0
ambulances,passenger_vans,0,0,0,0,0,0
buss,passenger_vans,0,0,0,0,0,0
cars,passenger_vans,1,0,0,0,0,1
convertibles,passenger_vans,0,0,0,0,0,0
coupes,passenger_vans,0,0,0,0,0,0
dump_trucks,passenger_vans,0,0,0,0,0,0
electrics,passenger_vans,0,0,0,0,0,0
fire_engines,passenger_vans,0,0,0,0,0,0
four_wheel_drives,passenger_vans,0,0,0,0,0,0
go_karts,passenger_vans,0,0,0,0,0,0
golfcarts,passenger_vans,0,0,0,0,0,0
hearses,passenger_vans,0,0,0,0,0,0
jeeps,passenger_vans,0,0,0,0,0,0
limousines,passenger_vans,0,0,0,0,0,0
minibikes,passenger_vans,0,0,0,0,0,0
minivans,passenger_vans,0,0,0,0,0,0
mopeds,passenger_vans,0,0,0,0,0,0
motor_vehicles,passenger_vans,0,0,0,0,0,1
motorcycles,passenger_vans,0,0,0,0,0,0
passenger_cars,passenger_vans,0,0,0,0,0,0
passenger_vans,passenger_vans,1,1,1,1,1,1
pickups,passenger_vans,0,0,0,0,0,0
roadsters,passenger_vans,0,0,0,0,0,0
sedans,passenger_vans,0,0,0,0,0,0
snowplows,passenger_vans,0,0,0,0,0,0
sport_utilities,passenger_vans,0,0,0,0,0,0
trail_bikes,passenger_vans,0,0,0,0,0,0
trailer_trucks,passenger_vans,0,0,0,0,0,0
trucks,passenger_vans,0,0,0,0,0,1
vans,passenger_vans,1,0,0,0,1,1
ambulances,pickups,0,0,0,0,0,0
buss,pickups,0,0,0,0,0,0
cars,pickups,1,1,1,1,0,0
convertibles,pickups,0,0,0,0,0,0
coupes,pickups,0,0,0,0,0,0
dump_trucks,pickups,0,0,0,0,0,0
electrics,pickups,0,0,0,0,0,0
fire_engines,pickups,0,0,0,0,0,0
four_wheel_drives,pickups,0,0,0,0,0,0
go_karts,pickups,0,0,0,0,0,0
golfcarts,pickups,0,0,0,0,0,0
hearses,pickups,0,0,0,0,0,0
jeeps,pickups,0,0,0,0,0,0
limousines,pickups,0,0,0,0,0,0
minibikes,pickups,0,0,0,0,0,0
minivans,pickups,0,0,0,0,0,0
mopeds,pickups,0,0,0,0,0,0
motor_vehicles,pickups,0,1,0,0,0,1
motorcycles,pickups,0,0,1,0,0,0
passenger_cars,pickups,0,0,0,0,0,0
passenger_vans,pickups,0,0,0,0,0,0
pickups,pickups,1,1,1,1,1,1
roadsters,pickups,0,0,0,0,0,0
sedans,pickups,0,0,0,0,0,0
snowplows,pickups,0,0,0,0,0,0
sport_utilities,pickups,0,0,0,0,0,0
trail_bikes,pickups,0,0,0,0,0,0
trailer_trucks,pickups,0,0,0,0,0,0
trucks,pickups,1,1,0,1,0,1
vans,pickups,0,0,0,0,0,0
ambulances,roadsters,0,0,0,0,0,0
buss,roadsters,0,0,0,0,0,0
cars,roadsters,1,0,1,1,0,1
convertibles,roadsters,0,0,0,0,0,0
coupes,roadsters,0,0,0,0,0,0
dump_trucks,roadsters,0,0,0,0,0,0
electrics,roadsters,0,0,0,0,0,0
fire_engines,roadsters,0,0,0,0,0,0
four_wheel_drives,roadsters,0,0,0,0,0,0
go_karts,roadsters,0,0,0,0,0,0
golfcarts,roadsters,0,0,0,0,0,0
hearses,roadsters,0,0,0,0,0,0
jeeps,roadsters,0,0,0,0,0,0
limousines,roadsters,0,0,0,0,0,0
minibikes,roadsters,0,0,0,0,0,0
minivans,roadsters,0,0,0,0,0,0
mopeds,roadsters,0,0,0,0,0,0
motor_vehicles,roadsters,1,0,0,0,0,1
motorcycles,roadsters,0,0,1,0,0,0
passenger_cars,roadsters,0,0,0,0,0,0
passenger_vans,roadsters,0,0,0,0,0,0
pickups,roadsters,0,0,0,0,0,0
roadsters,roadsters,1,1,1,1,1,1
sedans,roadsters,0,0,0,0,0,0
snowplows,roadsters,0,0,0,0,0,0
sport_utilities,roadsters,0,0,0,0,0,0
trail_bikes,roadsters,0,0,0,0,0,0
trailer_trucks,roadsters,0,0,0,0,0,0
trucks,roadsters,0,0,0,0,0,0
vans,roadsters,0,0,0,0,0,0
ambulances,sedans,0,0,0,0,0,0
buss,sedans,0,0,0,0,0,0
cars,sedans,1,0,1,1,0,1
convertibles,sedans,0,0,0,0,0,0
coupes,sedans,0,0,0,0,0,0
dump_trucks,sedans,0,0,0,0,0,0
electrics,sedans,0,0,0,0,0,0
fire_engines,sedans,0,0,0,0,0,0
four_wheel_drives,sedans,0,0,0,0,0,0
go_karts,sedans,0,0,0,0,0,0
golfcarts,sedans,0,0,0,0,0,0
hearses,sedans,0,0,0,0,0,0
jeeps,sedans,0,0,0,0,0,0
limousines,sedans,0,0,0,0,0,0
minibikes,sedans,0,0,0,0,0,0
minivans,sedans,0,0,0,0,0,0
mopeds,sedans,0,0,0,0,0,0
motor_vehicles,sedans,1,0,0,0,0,1
motorcycles,sedans,0,0,1,0,0,0
passenger_cars,sedans,0,0,0,0,0,0
passenger_vans,sedans,0,0,0,0,0,0
pickups,sedans,0,0,0,0,0,0
roadsters,sedans,0,0,0,0,0,0
sedans,sedans,1,1,1,1,1,1
snowplows,sedans,0,0,0,0,0,0
sport_utilities,sedans,0,0,0,0,0,0
trail_bikes,sedans,0,0,0,0,0,0
trailer_trucks,sedans,0,0,0,0,0,0
trucks,sedans,0,0,0,0,0,0
vans,sedans,0,0,0,0,0,0
ambulances,snowplows,0,0,0,0,0,0
buss,snowplows,0,0,0,0,0,0
cars,snowplows,0,0,1,1,0,0
convertibles,snowplows,0,0,0,0,0,0
coupes,snowplows,0,0,0,0,0,0
dump_trucks,snowplows,0,0,0,0,0,0
electrics,snowplows,0,0,0,0,0,0
fire_engines,snowplows,0,0,0,0,0,0
four_wheel_drives,snowplows,0,0,0,0,0,0
go_karts,snowplows,0,0,0,0,0,0
golfcarts,snowplows,0,0,0,0,0,0
hearses,snowplows,0,0,0,0,0,0
jeeps,snowplows,0,0,0,0,0,0
limousines,snowplows,0,0,0,0,0,0
minibikes,snowplows,0,0,0,0,0,0
minivans,snowplows,0,0,0,0,0,0
mopeds,snowplows,0,0,0,0,0,0
motor_vehicles,snowplows,0,0,0,0,0,1
motorcycles,snowplows,0,0,1,0,0,0
passenger_cars,snowplows,0,0,0,0,0,0
passenger_vans,snowplows,0,0,0,0,0,0
pickups,snowplows,0,0,0,0,0,0
roadsters,snowplows,0,0,0,0,0,0
sedans,snowplows,0,0,0,0,0,0
snowplows,snowplows,1,1,1,1,1,1
sport_utilities,snowplows,0,0,0,0,0,0
trail_bikes,snowplows,0,0,0,0,0,0
trailer_trucks,snowplows,0,0,0,0,0,0
trucks,snowplows,0,0,1,0,0,0
vans,snowplows,0,0,0,0,0,0
ambulances,sport_utilities,0,0,0,0,0,0
buss,sport_utilities,0,0,0,0,0,0
cars,sport_utilities,0,0,0,0,0,1
convertibles,sport_utilities,0,0,0,0,0,0
coupes,sport_utilities,0,0,0,0,0,0
dump_trucks,sport_utilities,0,0,0,0,0,0
electrics,sport_utilities,0,0,0,0,0,0
fire_engines,sport_utilities,0,0,0,0,0,0
four_wheel_drives,sport_utilities,0,0,0,0,0,0
go_karts,sport_utilities,0,0,0,0,0,0
golfcarts,sport_utilities,0,0,0,0,0,0
hearses,sport_utilities,0,0,0,0,0,0
jeeps,sport_utilities,0,0,0,0,0,0
limousines,sport_utilities,0,0,0,0,0,0
minibikes,sport_utilities,0,0,0,0,0,0
minivans,sport_utilities,0,0,0,0,0,0
mopeds,sport_utilities,0,0,0,0,0,0
motor_vehicles,sport_utilities,0,0,0,0,0,1
motorcycles,sport_utilities,0,0,0,0,0,0
passenger_cars,sport_utilities,0,0,0,0,0,0
passenger_vans,sport_utilities,0,0,0,0,0,0
pickups,sport_utilities,0,0,0,0,0,0
roadsters,sport_utilities,0,0,0,0,0,0
sedans,sport_utilities,0,0,0,0,0,0
snowplows,sport_utilities,0,0,0,0,0,0
sport_utilities,sport_utilities,1,1,1,1,1,1
trail_bikes,sport_utilities,0,0,0,0,0,0
trailer_trucks,sport_utilities,0,0,0,0,0,0
trucks,sport_utilities,0,0,0,0,0,0
vans,sport_utilities,0,0,0,0,0,0
ambulances,trail_bikes,0,0,0,0,0,0
buss,trail_bikes,0,0,0,0,0,0
cars,trail_bikes,1,0,0,0,0,0
convertibles,trail_bikes,0,0,0,0,0,0
coupes,trail_bikes,0,0,0,0,0,0
dump_trucks,trail_bikes,0,0,0,0,0,0
electrics,trail_bikes,0,0,0,0,0,0
fire_engines,trail_bikes,0,0,0,0,0,0
four_wheel_drives,trail_bikes,0,0,0,0,0,0
go_karts,trail_bikes,0,0,0,0,0,0
golfcarts,trail_bikes,0,0,0,0,0,0
hearses,trail_bikes,0,0,0,0,0,0
jeeps,trail_bikes,0,0,0,0,0,0
limousines,trail_bikes,0,0,0,0,0,0
minibikes,trail_bikes,0,0,0,0,0,0
minivans,trail_bikes,0,0,0,0,0,0
mopeds,trail_bikes,0,0,0,0,0,0
motor_vehicles,trail_bikes,0,0,0,0,0,1
motorcycles,trail_bikes,0,0,0,0,0,1
passenger_cars,trail_bikes,0,0,0,0,0,0
passenger_vans,trail_bikes,0,0,0,0,0,0
pickups,trail_bikes,0,0,0,0,0,0
roadsters,trail_bikes,0,0,0,0,0,0
sedans,trail_bikes,0,0,0,0,0,0
snowplows,trail_bikes,0,0,0,0,0,0
sport_utilities,trail_bikes,0,0,0,0,0,0
trail_bikes,trail_bikes,1,1,1,1,1,1
trailer_trucks,trail_bikes,0,0,0,0,0,0
trucks,trail_bikes,0,0,0,0,0,0
vans,trail_bikes,0,0,0,0,0,0
ambulances,trailer_trucks,0,0,0,0,0,0
buss,trailer_trucks,0,0,0,0,0,0
cars,trailer_trucks,1,0,0,0,0,0
convertibles,trailer_trucks,0,0,0,0,0,0
coupes,trailer_trucks,0,0,0,0,0,0
dump_trucks,trailer_trucks,0,0,0,0,0,0
electrics,trailer_trucks,0,0,0,0,0,0
fire_engines,trailer_trucks,0,0,0,0,0,0
four_wheel_drives,trailer_trucks,0,0,0,0,0,0
go_karts,trailer_trucks,0,0,0,0,0,0
golfcarts,trailer_trucks,0,0,0,0,0,0
hearses,trailer_trucks,0,0,0,0,0,0
jeeps,trailer_trucks,0,0,0,0,0,0
limousines,trailer_trucks,0,0,0,0,0,0
minibikes,trailer_trucks,0,0,0,0,0,0
minivans,trailer_trucks,0,0,0,0,0,0
mopeds,trailer_trucks,0,0,0,0,0,0
motor_vehicles,trailer_trucks,0,0,0,0,0,1
motorcycles,trailer_trucks,0,0,0,0,0,0
passenger_cars,trailer_trucks,0,0,0,0,0,0
passenger_vans,trailer_trucks,0,0,0,0,0,0
pickups,trailer_trucks,0,0,0,0,0,0
roadsters,trailer_trucks,0,0,0,0,0,0
sedans,trailer_trucks,0,0,0,0,0,0
snowplows,trailer_trucks,0,0,0,0,0,0
sport_utilities,trailer_trucks,0,0,0,0,0,0
trail_bikes,trailer_trucks,0,0,0,0,0,0
trailer_trucks,trailer_trucks,1,1,1,1,1,1
trucks,trailer_trucks,1,0,0,0,1,1
vans,trailer_trucks,0,0,0,0,0,0
ambulances,trucks,0,0,0,0,0,0
buss,trucks,0,0,0,0,0,0
cars,trucks,1,1,1,1,0,0
convertibles,trucks,0,0,0,0,0,0
coupes,trucks,0,0,0,0,0,0
dump_trucks,trucks,0,0,0,0,0,0
electrics,trucks,0,0,0,0,0,0
fire_engines,trucks,0,0,0,0,0,0
four_wheel_drives,trucks,0,0,0,0,0,0
go_karts,trucks,0,0,0,0,0,0
golfcarts,trucks,0,0,0,0,0,0
hearses,trucks,0,0,0,0,0,0
jeeps,trucks,0,0,0,0,0,0
limousines,trucks,0,0,0,0,0,0
minibikes,trucks,0,0,0,0,0,0
minivans,trucks,0,0,0,0,0,0
mopeds,trucks,0,0,0,0,0,0
motor_vehicles,trucks,0,1,0,0,0,1
motorcycles,trucks,0,0,1,0,0,0
passenger_cars,trucks,0,0,0,0,0,0
passenger_vans,trucks,0,0,0,0,0,0
pickups,trucks,0,0,0,0,0,0
roadsters,trucks,0,0,0,0,0,0
sedans,trucks,0,0,0,0,0,0
snowplows,trucks,0,0,0,0,0,0
sport_utilities,trucks,0,0,0,0,0,0
trail_bikes,trucks,0,0,0,0,0,0
trailer_trucks,trucks,0,0,0,0,0,0
trucks,trucks,1,1,1,1,1,1
vans,trucks,0,0,0,0,0,0
ambulances,vans,0,0,0,0,0,0
buss,vans,0,0,0,0,0,0
cars,vans,1,0,1,1,0,1
convertibles,vans,0,0,0,0,0,0
coupes,vans,0,0,0,0,0,0
dump_trucks,vans,0,0,0,0,0,0
electrics,vans,0,0,0,0,0,0
fire_engines,vans,0,0,0,0,0,0
four_wheel_drives,vans,0,0,0,0,0,0
go_karts,vans,0,0,0,0,0,0
golfcarts,vans,0,0,0,0,0,0
hearses,vans,0,0,0,0,0,0
jeeps,vans,0,0,0,0,0,0
limousines,vans,0,0,0,0,0,0
minibikes,vans,0,0,0,0,0,0
minivans,vans,0,0,0,0,0,0
mopeds,vans,0,0,0,0,0,0
motor_vehicles,vans,0,0,0,0,0,1
motorcycles,vans,0,0,1,0,0,0
passenger_cars,vans,0,0,0,0,0,0
passenger_vans,vans,0,0,0,0,0,0
pickups,vans,0,0,0,0,0,0
roadsters,vans,0,0,0,0,0,0
sedans,vans,0,0,0,0,0,0
snowplows,vans,0,0,0,0,0,0
sport_utilities,vans,0,0,0,0,0,0
trail_bikes,vans,0,0,0,0,0,0
trailer_trucks,vans,0,0,0,0,0,0
trucks,vans,0,0,0,1,0,1
vans,vans,1,1,1,1,1,1
